[0920/112605:ERROR:process_info.cc(608)] range at 0x81e6e000, size 0x2000 fully unreadable
[0920/112605:ERROR:process_info.cc(608)] range at 0x81faf000, size 0x1000 fully unreadable
[0920/112605:ERROR:process_info.cc(608)] range at 0x8242e000, size 0x2000 fully unreadable
[0920/112605:ERROR:process_info.cc(608)] range at 0x8256f000, size 0x1000 fully unreadable
[0920/112605:ERROR:process_info.cc(608)] range at 0x826ae000, size 0x2000 fully unreadable
[0920/112605:ERROR:process_info.cc(608)] range at 0x82bef000, size 0x1000 fully unreadable
[0920/112605:ERROR:process_info.cc(608)] range at 0x8304e000, size 0x2000 fully unreadable
[0920/112605:ERROR:process_info.cc(608)] range at 0x8318e000, size 0x2000 fully unreadable
[0920/112605:ERROR:process_info.cc(608)] range at 0x832ce000, size 0x2000 fully unreadable
[0920/112605:ERROR:process_info.cc(608)] range at 0x8378e000, size 0x2000 fully unreadable
[0920/112605:ERROR:process_info.cc(608)] range at 0x838ce000, size 0x2000 fully unreadable
[0920/112605:ERROR:process_info.cc(608)] range at 0x83a0e000, size 0x2000 fully unreadable
[0920/112605:ERROR:process_info.cc(608)] range at 0x8406e000, size 0x2000 fully unreadable
[0920/112605:ERROR:process_info.cc(608)] range at 0x841ae000, size 0x2000 fully unreadable
[0920/112605:ERROR:process_info.cc(608)] range at 0x842ef000, size 0x1000 fully unreadable
[0920/112605:ERROR:process_info.cc(608)] range at 0x8442e000, size 0x2000 fully unreadable
[0920/112605:ERROR:process_info.cc(608)] range at 0x848cf000, size 0x1000 fully unreadable
[0920/112605:ERROR:process_info.cc(608)] range at 0x84a0e000, size 0x2000 fully unreadable
[0920/112605:ERROR:process_info.cc(608)] range at 0x84b4e000, size 0x2000 fully unreadable
[0920/112605:ERROR:process_info.cc(608)] range at 0x84c8e000, size 0x2000 fully unreadable
[0920/112605:ERROR:process_info.cc(608)] range at 0x8510e000, size 0x2000 fully unreadable
[0920/112605:ERROR:process_info.cc(608)] range at 0x8524e000, size 0x2000 fully unreadable
[0920/112605:ERROR:process_info.cc(608)] range at 0x8538e000, size 0x2000 fully unreadable
[0920/112605:ERROR:process_info.cc(608)] range at 0x8584f000, size 0x1000 fully unreadable
[0920/112605:ERROR:process_info.cc(608)] range at 0x8622e000, size 0x2000 fully unreadable
[0920/112605:ERROR:process_info.cc(608)] range at 0x8656e000, size 0x2000 fully unreadable
[0920/112605:ERROR:process_info.cc(608)] range at 0x866ae000, size 0x2000 fully unreadable
[0920/112605:ERROR:process_info.cc(608)] range at 0x867ef000, size 0x1000 fully unreadable
[0920/112605:ERROR:process_info.cc(608)] range at 0x86c8e000, size 0x2000 fully unreadable
[0920/112605:ERROR:process_info.cc(608)] range at 0x86dce000, size 0x2000 fully unreadable
[0920/112605:ERROR:process_info.cc(608)] range at 0x86f0e000, size 0x2000 fully unreadable
[0920/112605:ERROR:process_info.cc(608)] range at 0x8704e000, size 0x2000 fully unreadable
[0920/112605:ERROR:process_info.cc(608)] range at 0x874ee000, size 0x2000 fully unreadable
[0920/112605:ERROR:process_info.cc(608)] range at 0x8762f000, size 0x1000 fully unreadable
[0920/112605:ERROR:process_info.cc(608)] range at 0x8776e000, size 0x2000 fully unreadable
[0920/112605:ERROR:process_info.cc(608)] range at 0x87bef000, size 0x1000 fully unreadable
[0920/112605:ERROR:process_info.cc(608)] range at 0x87f2f000, size 0x1000 fully unreadable
[0920/112605:ERROR:process_info.cc(608)] range at 0x8806e000, size 0x2000 fully unreadable
[0920/112605:ERROR:process_info.cc(608)] range at 0x8850e000, size 0x2000 fully unreadable
[0920/112605:ERROR:process_info.cc(608)] range at 0x8864f000, size 0x1000 fully unreadable
[0920/112605:ERROR:process_info.cc(608)] range at 0x8898e000, size 0x2000 fully unreadable
[0920/112605:ERROR:process_info.cc(608)] range at 0x88acf000, size 0x1000 fully unreadable
[0920/112605:ERROR:process_info.cc(608)] range at 0x88f6e000, size 0x2000 fully unreadable
[0920/112605:ERROR:process_info.cc(608)] range at 0x890af000, size 0x1000 fully unreadable
[0920/112605:ERROR:process_info.cc(608)] range at 0x891ef000, size 0x1000 fully unreadable
[0920/112605:ERROR:process_info.cc(608)] range at 0x8952e000, size 0x2000 fully unreadable
[0920/112605:ERROR:process_info.cc(608)] range at 0x899ce000, size 0x2000 fully unreadable
[0920/112605:ERROR:process_info.cc(608)] range at 0x89b0e000, size 0x2000 fully unreadable
[0920/112605:ERROR:process_info.cc(608)] range at 0x89c4e000, size 0x2000 fully unreadable
[0920/112605:ERROR:process_info.cc(608)] range at 0x89d8f000, size 0x1000 fully unreadable
[0920/112605:ERROR:process_info.cc(608)] range at 0x8a22e000, size 0x2000 fully unreadable
[0920/112605:ERROR:process_info.cc(608)] range at 0x8a36e000, size 0x2000 fully unreadable
[0920/112605:ERROR:process_info.cc(608)] range at 0x9390e000, size 0x2000 fully unreadable
[0920/112605:ERROR:process_info.cc(608)] range at 0x93a4e000, size 0x2000 fully unreadable
[0920/112605:ERROR:process_info.cc(608)] range at 0x93d8f000, size 0x1000 fully unreadable
[0920/112605:ERROR:process_info.cc(608)] range at 0x9428e000, size 0x2000 fully unreadable
[0920/112605:ERROR:process_info.cc(608)] range at 0x943ce000, size 0x2000 fully unreadable
[0920/112605:ERROR:process_info.cc(608)] range at 0x9450f000, size 0x1000 fully unreadable
[0920/112605:ERROR:process_info.cc(608)] range at 0x9464f000, size 0x1000 fully unreadable
[0920/112605:ERROR:process_info.cc(608)] range at 0x94bae000, size 0x2000 fully unreadable
[0920/112605:ERROR:process_info.cc(608)] range at 0x94eef000, size 0x1000 fully unreadable
[0920/112605:ERROR:process_info.cc(608)] range at 0x9502f000, size 0x1000 fully unreadable
[0920/112605:ERROR:process_info.cc(608)] range at 0x9516f000, size 0x1000 fully unreadable
[0920/112605:ERROR:process_info.cc(608)] range at 0x954ae000, size 0x2000 fully unreadable
[0920/112605:ERROR:process_info.cc(608)] range at 0x959ae000, size 0x2000 fully unreadable
[0920/112605:ERROR:process_info.cc(608)] range at 0x95aee000, size 0x2000 fully unreadable
[0920/112605:ERROR:process_info.cc(608)] range at 0x95c2e000, size 0x2000 fully unreadable
[0920/112605:ERROR:process_info.cc(608)] range at 0x95f6e000, size 0x2000 fully unreadable
[0920/112605:ERROR:process_info.cc(608)] range at 0x9648e000, size 0x2000 fully unreadable
[0920/112605:ERROR:process_info.cc(608)] range at 0x965ce000, size 0x2000 fully unreadable
[0920/112605:ERROR:process_info.cc(608)] range at 0x9670e000, size 0x2000 fully unreadable
[0920/112605:ERROR:process_info.cc(608)] range at 0x9684e000, size 0x2000 fully unreadable
[0920/112605:ERROR:process_info.cc(608)] range at 0x96d8e000, size 0x2000 fully unreadable
[0920/112605:ERROR:process_info.cc(608)] range at 0x96ecf000, size 0x1000 fully unreadable
[0920/112605:ERROR:process_info.cc(608)] range at 0x97170000, size 0xf84 fully unreadable
[0920/112605:ERROR:process_info.cc(608)] range at 0x974ff000, size 0x1000 fully unreadable
[0920/112605:ERROR:process_info.cc(608)] range at 0x97173000, size 0xf84 fully unreadable
[0920/112605:ERROR:process_info.cc(608)] range at 0x975fe000, size 0x2000 fully unreadable
[0920/112605:ERROR:process_info.cc(608)] range at 0x97176000, size 0xf84 fully unreadable
[0920/112605:ERROR:process_info.cc(608)] range at 0x97afe000, size 0x2000 fully unreadable
[0920/112605:ERROR:process_info.cc(608)] range at 0x97179000, size 0xf84 fully unreadable
[0920/112605:ERROR:process_info.cc(608)] range at 0x97bfe000, size 0x2000 fully unreadable
[0920/112605:ERROR:process_info.cc(608)] range at 0x9717c000, size 0xf84 fully unreadable
[0920/112605:ERROR:process_info.cc(608)] range at 0x97d3e000, size 0x2000 fully unreadable
[0920/112605:ERROR:process_info.cc(608)] range at 0x9717f000, size 0xf84 fully unreadable
[0920/112605:ERROR:process_info.cc(608)] range at 0x97e7e000, size 0x2000 fully unreadable
[0920/112605:ERROR:process_info.cc(608)] range at 0x97182000, size 0xf84 fully unreadable
[0920/112605:ERROR:process_info.cc(608)] range at 0x983be000, size 0x2000 fully unreadable
[0920/112605:ERROR:process_info.cc(608)] range at 0x97185000, size 0xf84 fully unreadable
[0920/112605:ERROR:process_info.cc(608)] range at 0x984fe000, size 0x2000 fully unreadable
[0920/112605:ERROR:process_info.cc(608)] range at 0x97188000, size 0xf84 fully unreadable
[0920/112605:ERROR:process_info.cc(608)] range at 0x9863f000, size 0x1000 fully unreadable
[0920/112605:ERROR:process_info.cc(608)] range at 0x9718b000, size 0xf84 fully unreadable
[0920/112605:ERROR:process_info.cc(608)] range at 0x9877e000, size 0x2000 fully unreadable
[0920/112605:ERROR:process_info.cc(608)] range at 0x9718e000, size 0xf84 fully unreadable
[0920/112605:ERROR:process_info.cc(608)] range at 0x98cbf000, size 0x1000 fully unreadable
[0920/112605:ERROR:process_info.cc(608)] range at 0x97191000, size 0xf84 fully unreadable
[0920/112605:ERROR:process_info.cc(608)] range at 0x98dff000, size 0x1000 fully unreadable
[0920/112605:ERROR:process_info.cc(608)] range at 0x97194000, size 0xf84 fully unreadable
[0920/112605:ERROR:process_info.cc(608)] range at 0x98f3e000, size 0x2000 fully unreadable
[0920/112605:ERROR:process_info.cc(608)] range at 0x97197000, size 0xf84 fully unreadable
[0920/112605:ERROR:process_info.cc(608)] range at 0x9927e000, size 0x2000 fully unreadable
[0920/112605:ERROR:process_info.cc(608)] range at 0x9719a000, size 0xf84 fully unreadable
[0920/112605:ERROR:process_info.cc(608)] range at 0x997de000, size 0x2000 fully unreadable
[0920/112605:ERROR:process_info.cc(608)] range at 0x9719d000, size 0xf84 fully unreadable
[0920/112605:ERROR:process_info.cc(608)] range at 0x9991e000, size 0x2000 fully unreadable
[0920/112605:ERROR:process_info.cc(608)] range at 0x971a0000, size 0xf84 fully unreadable
[0920/112605:ERROR:process_info.cc(608)] range at 0x99a5f000, size 0x1000 fully unreadable
[0920/112605:ERROR:process_info.cc(608)] range at 0x971a3000, size 0xf84 fully unreadable
[0920/112605:ERROR:process_info.cc(608)] range at 0x99b9e000, size 0x2000 fully unreadable
[0920/112605:ERROR:process_info.cc(608)] range at 0x971a6000, size 0xf84 fully unreadable
[0920/112605:ERROR:process_info.cc(608)] range at 0x99cde000, size 0x2000 fully unreadable
[0920/112605:ERROR:process_info.cc(608)] range at 0x971a9000, size 0xf84 fully unreadable
[0920/112605:ERROR:process_info.cc(608)] range at 0x9a21f000, size 0x1000 fully unreadable
[0920/112605:ERROR:process_info.cc(608)] range at 0x971ac000, size 0xf84 fully unreadable
[0920/112605:ERROR:process_info.cc(608)] range at 0x9a55e000, size 0x2000 fully unreadable
[0920/112605:ERROR:process_info.cc(608)] range at 0x971af000, size 0xf84 fully unreadable
[0920/112605:ERROR:process_info.cc(608)] range at 0x9a69e000, size 0x2000 fully unreadable
[0920/112605:ERROR:process_info.cc(608)] range at 0x971b2000, size 0xf84 fully unreadable
[0920/112605:ERROR:process_info.cc(608)] range at 0x9a7de000, size 0x2000 fully unreadable
[0920/112605:ERROR:process_info.cc(608)] range at 0x971b5000, size 0xf84 fully unreadable
[0920/112605:ERROR:process_info.cc(608)] range at 0x9ad1e000, size 0x2000 fully unreadable
[0920/112605:ERROR:process_info.cc(608)] range at 0x971b8000, size 0xf84 fully unreadable
[0920/112605:ERROR:process_info.cc(608)] range at 0x9ae5e000, size 0x2000 fully unreadable
[0920/112605:ERROR:process_info.cc(608)] range at 0x971bb000, size 0xf84 fully unreadable
[0920/112605:ERROR:process_info.cc(608)] range at 0x9af9e000, size 0x2000 fully unreadable
[0920/112605:ERROR:process_info.cc(608)] range at 0x971be000, size 0xf84 fully unreadable
[0920/112605:ERROR:process_info.cc(608)] range at 0x9b0df000, size 0x1000 fully unreadable
[0920/112605:ERROR:process_info.cc(608)] range at 0x971c1000, size 0xf84 fully unreadable
[0920/112605:ERROR:process_info.cc(608)] range at 0x9b21f000, size 0x1000 fully unreadable
[0920/112605:ERROR:process_info.cc(608)] range at 0x971c4000, size 0xf84 fully unreadable
[0920/112605:ERROR:process_info.cc(608)] range at 0x9b75e000, size 0x2000 fully unreadable
[0920/112605:ERROR:process_info.cc(608)] range at 0x971c7000, size 0xf84 fully unreadable
[0920/112605:ERROR:process_info.cc(608)] range at 0x9b89f000, size 0x1000 fully unreadable
[0920/112605:ERROR:process_info.cc(608)] range at 0x971ca000, size 0xf84 fully unreadable
[0920/112605:ERROR:process_info.cc(608)] range at 0x9b9de000, size 0x2000 fully unreadable
[0920/112605:ERROR:process_info.cc(608)] range at 0x971cd000, size 0xf84 fully unreadable
[0920/112605:ERROR:process_info.cc(608)] range at 0x9bb1e000, size 0x2000 fully unreadable
[0920/112605:ERROR:process_info.cc(608)] range at 0x971d0000, size 0xf84 fully unreadable
[0920/112605:ERROR:process_info.cc(608)] range at 0x9c05e000, size 0x2000 fully unreadable
[0920/112605:ERROR:process_info.cc(608)] range at 0x971d3000, size 0xf84 fully unreadable
[0920/112605:ERROR:process_info.cc(608)] range at 0x9c39f000, size 0x1000 fully unreadable
[0920/112605:ERROR:process_info.cc(608)] range at 0x971d6000, size 0xf84 fully unreadable
[0920/112605:ERROR:process_info.cc(608)] range at 0x9c6de000, size 0x2000 fully unreadable
[0920/112605:ERROR:process_info.cc(608)] range at 0x971d9000, size 0xf84 fully unreadable
[0920/112605:ERROR:process_info.cc(608)] range at 0x9cc1f000, size 0x1000 fully unreadable
[0920/112605:ERROR:process_info.cc(608)] range at 0x971dc000, size 0xf84 fully unreadable
[0920/112605:ERROR:process_info.cc(608)] range at 0x9cd5e000, size 0x2000 fully unreadable
[0920/112605:ERROR:process_info.cc(608)] range at 0x971df000, size 0xf84 fully unreadable
[0920/112605:ERROR:process_info.cc(608)] range at 0x9ce9e000, size 0x2000 fully unreadable
[0920/112605:ERROR:process_info.cc(608)] range at 0x971e2000, size 0xf84 fully unreadable
[0920/112605:ERROR:process_info.cc(608)] range at 0x9cfde000, size 0x2000 fully unreadable
[0920/112605:ERROR:process_info.cc(608)] range at 0x971e5000, size 0xf84 fully unreadable
[0920/112605:ERROR:process_info.cc(608)] range at 0x9d53e000, size 0x2000 fully unreadable
[0920/112605:ERROR:process_info.cc(608)] range at 0x971e8000, size 0xf84 fully unreadable
[0920/112605:ERROR:process_info.cc(608)] range at 0x9d67e000, size 0x2000 fully unreadable
[0920/112605:ERROR:process_info.cc(608)] range at 0x971eb000, size 0xf84 fully unreadable
[0920/112605:ERROR:process_info.cc(608)] range at 0x9d7be000, size 0x2000 fully unreadable
[0920/112605:ERROR:process_info.cc(608)] range at 0x971ee000, size 0xf84 fully unreadable
[0920/112605:ERROR:process_info.cc(608)] range at 0x9d8fe000, size 0x2000 fully unreadable
[0920/112605:ERROR:process_info.cc(608)] range at 0x971f1000, size 0xf84 fully unreadable
[0920/112605:ERROR:process_info.cc(608)] range at 0x9da3e000, size 0x2000 fully unreadable
[0920/112605:ERROR:process_info.cc(608)] range at 0x971f4000, size 0xf84 fully unreadable
[0920/112605:ERROR:process_info.cc(608)] range at 0x9e01e000, size 0x2000 fully unreadable
[0920/112605:ERROR:process_info.cc(608)] range at 0x971f7000, size 0xf84 fully unreadable
[0920/112605:ERROR:process_info.cc(608)] range at 0x9e15e000, size 0x2000 fully unreadable
[0920/112605:ERROR:process_info.cc(608)] range at 0x971fa000, size 0xf84 fully unreadable
[0920/112605:ERROR:process_info.cc(608)] range at 0x9e29f000, size 0x1000 fully unreadable
[0920/112605:ERROR:process_info.cc(608)] range at 0x971fd000, size 0xf84 fully unreadable
[0920/112605:ERROR:process_info.cc(608)] range at 0x9e3de000, size 0x2000 fully unreadable
[0920/112605:ERROR:process_info.cc(608)] range at 0x97002000, size 0xf84 fully unreadable
[0920/112605:ERROR:process_info.cc(608)] range at 0x9e71e000, size 0x2000 fully unreadable
[0920/112605:ERROR:process_info.cc(608)] range at 0x97005000, size 0xf84 fully unreadable
[0920/112605:ERROR:process_info.cc(608)] range at 0x9ec7f000, size 0x1000 fully unreadable
[0920/112605:ERROR:process_info.cc(608)] range at 0x97008000, size 0xf84 fully unreadable
[0920/112605:ERROR:process_info.cc(608)] range at 0x9edbe000, size 0x2000 fully unreadable
[0920/112605:ERROR:process_info.cc(608)] range at 0x9700b000, size 0xf84 fully unreadable
[0920/112605:ERROR:process_info.cc(608)] range at 0x9eefe000, size 0x2000 fully unreadable
[0920/112605:ERROR:process_info.cc(608)] range at 0x9700e000, size 0xf84 fully unreadable
[0920/112605:ERROR:process_info.cc(608)] range at 0x9f03e000, size 0x2000 fully unreadable
[0920/112605:ERROR:process_info.cc(608)] range at 0x97011000, size 0xf84 fully unreadable
[0920/112605:ERROR:process_info.cc(608)] range at 0x9f37e000, size 0x2000 fully unreadable
[0920/112605:ERROR:process_info.cc(608)] range at 0x97014000, size 0xf84 fully unreadable
[0920/112605:ERROR:process_info.cc(608)] range at 0x9fcde000, size 0x2000 fully unreadable
[0920/112605:ERROR:process_info.cc(608)] range at 0x97017000, size 0xf84 fully unreadable
[0920/112605:ERROR:process_info.cc(608)] range at 0x9fe1f000, size 0x1000 fully unreadable
[0920/112605:ERROR:process_info.cc(608)] range at 0x9701a000, size 0xf84 fully unreadable
[0920/112605:ERROR:process_info.cc(608)] range at 0x9ff5e000, size 0x2000 fully unreadable
[0920/112605:ERROR:process_info.cc(608)] range at 0x9701d000, size 0xf84 fully unreadable
[0920/112605:ERROR:process_info.cc(608)] range at 0xa009f000, size 0x1000 fully unreadable
[0920/112605:ERROR:process_info.cc(608)] range at 0x97020000, size 0xf84 fully unreadable
[0920/112605:ERROR:process_info.cc(608)] range at 0xa03de000, size 0x2000 fully unreadable
[0920/112605:ERROR:process_info.cc(608)] range at 0x97023000, size 0xf84 fully unreadable
[0920/112605:ERROR:process_info.cc(608)] range at 0xa095e000, size 0x2000 fully unreadable
[0920/112605:ERROR:process_info.cc(608)] range at 0x97026000, size 0xf84 fully unreadable
[0920/112605:ERROR:process_info.cc(608)] range at 0xa0a9f000, size 0x1000 fully unreadable
[0920/112605:ERROR:process_info.cc(608)] range at 0x97029000, size 0xf84 fully unreadable
[0920/112605:ERROR:process_info.cc(608)] range at 0xa0bde000, size 0x2000 fully unreadable
[0920/112605:ERROR:process_info.cc(608)] range at 0x9702c000, size 0xf84 fully unreadable
[0920/112605:ERROR:process_info.cc(608)] range at 0xa0d1f000, size 0x1000 fully unreadable
[0920/112605:ERROR:process_info.cc(608)] range at 0x9702f000, size 0xf84 fully unreadable
[0920/112605:ERROR:process_info.cc(608)] range at 0xa105e000, size 0x2000 fully unreadable
[0920/112605:ERROR:process_info.cc(608)] range at 0x97032000, size 0xf84 fully unreadable
[0920/112605:ERROR:process_info.cc(608)] range at 0xa15de000, size 0x2000 fully unreadable
[0920/112605:ERROR:process_info.cc(608)] range at 0x97035000, size 0xf84 fully unreadable
[0920/112605:ERROR:process_info.cc(608)] range at 0xa171e000, size 0x2000 fully unreadable
[0920/112605:ERROR:process_info.cc(608)] range at 0x97038000, size 0xf84 fully unreadable
[0920/112605:ERROR:process_info.cc(608)] range at 0xa185e000, size 0x2000 fully unreadable
[0920/112605:ERROR:process_info.cc(608)] range at 0x9703b000, size 0xf84 fully unreadable
[0920/112605:ERROR:process_info.cc(608)] range at 0xa296e000, size 0x2000 fully unreadable
[0920/112605:ERROR:process_info.cc(608)] range at 0x9703e000, size 0xf84 fully unreadable
[0920/112605:ERROR:process_info.cc(608)] range at 0xa314e000, size 0x2000 fully unreadable
[0920/112605:ERROR:process_info.cc(608)] range at 0x97041000, size 0xf84 fully unreadable
[0920/112605:ERROR:process_info.cc(608)] range at 0xa328e000, size 0x2000 fully unreadable
[0920/112605:ERROR:process_info.cc(608)] range at 0x97044000, size 0xf84 fully unreadable
[0920/112605:ERROR:process_info.cc(608)] range at 0xa33ce000, size 0x2000 fully unreadable
[0920/112605:ERROR:process_info.cc(608)] range at 0x97047000, size 0xf84 fully unreadable
[0920/112605:ERROR:process_info.cc(608)] range at 0xa350f000, size 0x1000 fully unreadable
[0920/112605:ERROR:process_info.cc(608)] range at 0x9704a000, size 0xf84 fully unreadable
[0920/112605:ERROR:process_info.cc(608)] range at 0xa364e000, size 0x2000 fully unreadable
[0920/112605:ERROR:process_info.cc(608)] range at 0x9704d000, size 0xf84 fully unreadable
[0920/112605:ERROR:process_info.cc(608)] range at 0xa3b8f000, size 0x1000 fully unreadable
[0920/112605:ERROR:process_info.cc(608)] range at 0x97050000, size 0xf84 fully unreadable
[0920/112605:ERROR:process_info.cc(608)] range at 0xa410f000, size 0x1000 fully unreadable
[0920/112605:ERROR:process_info.cc(608)] range at 0x97053000, size 0xf84 fully unreadable
[0920/112605:ERROR:process_info.cc(608)] range at 0xa424e000, size 0x2000 fully unreadable
[0920/112605:ERROR:process_info.cc(608)] range at 0x97056000, size 0xf84 fully unreadable
[0920/112605:ERROR:process_info.cc(608)] range at 0xa438f000, size 0x1000 fully unreadable
[0920/112605:ERROR:process_info.cc(608)] range at 0x97059000, size 0xf84 fully unreadable
[0920/112605:ERROR:process_info.cc(608)] range at 0xa44ce000, size 0x2000 fully unreadable
[0920/112605:ERROR:process_info.cc(608)] range at 0x9705c000, size 0xf84 fully unreadable
[0920/112605:ERROR:process_info.cc(608)] range at 0xa4aae000, size 0x2000 fully unreadable
[0920/112605:ERROR:process_info.cc(608)] range at 0x9705f000, size 0xf84 fully unreadable
[0920/112605:ERROR:process_info.cc(608)] range at 0xa4bee000, size 0x2000 fully unreadable
[0920/112605:ERROR:process_info.cc(608)] range at 0x97062000, size 0xf84 fully unreadable
[0920/112605:ERROR:process_info.cc(608)] range at 0xa4d2e000, size 0x2000 fully unreadable
[0920/112605:ERROR:process_info.cc(608)] range at 0x97065000, size 0xf84 fully unreadable
[0920/112605:ERROR:process_info.cc(608)] range at 0xa4e6f000, size 0x1000 fully unreadable
[0920/112605:ERROR:process_info.cc(608)] range at 0x97068000, size 0xf84 fully unreadable
[0920/112605:ERROR:process_info.cc(608)] range at 0xa51ae000, size 0x2000 fully unreadable
[0920/112605:ERROR:process_info.cc(608)] range at 0x9706b000, size 0xf84 fully unreadable
[0920/112605:ERROR:process_info.cc(608)] range at 0xa576e000, size 0x2000 fully unreadable
[0920/112605:ERROR:process_info.cc(608)] range at 0x9706e000, size 0xf84 fully unreadable
[0920/112605:ERROR:process_info.cc(608)] range at 0xa58ae000, size 0x2000 fully unreadable
[0920/112605:ERROR:process_info.cc(608)] range at 0x97071000, size 0xf84 fully unreadable
[0920/112605:ERROR:process_info.cc(608)] range at 0xa59ef000, size 0x1000 fully unreadable
[0920/112605:ERROR:process_info.cc(608)] range at 0x97074000, size 0xf84 fully unreadable
[0920/112605:ERROR:process_info.cc(608)] range at 0xa5b2e000, size 0x2000 fully unreadable
[0920/112605:ERROR:process_info.cc(608)] range at 0x97077000, size 0xf84 fully unreadable
[0920/112605:ERROR:process_info.cc(608)] range at 0xa5c6e000, size 0x2000 fully unreadable
[0920/112605:ERROR:process_info.cc(608)] range at 0x9707a000, size 0xf84 fully unreadable
[0920/112605:ERROR:process_info.cc(608)] range at 0xa644f000, size 0x1000 fully unreadable
[0920/112605:ERROR:process_info.cc(608)] range at 0x9707d000, size 0xf84 fully unreadable
[0920/112605:ERROR:process_info.cc(608)] range at 0xa658f000, size 0x1000 fully unreadable
[0920/112605:ERROR:process_info.cc(608)] range at 0x97080000, size 0xf84 fully unreadable
[0920/112605:ERROR:process_info.cc(608)] range at 0xa66ce000, size 0x2000 fully unreadable
[0920/112605:ERROR:process_info.cc(608)] range at 0x97083000, size 0xf84 fully unreadable
[0920/112605:ERROR:process_info.cc(608)] range at 0xa680e000, size 0x2000 fully unreadable
[0920/112605:ERROR:process_info.cc(608)] range at 0x97086000, size 0xf84 fully unreadable
[0920/112605:ERROR:process_info.cc(608)] range at 0xa6dee000, size 0x2000 fully unreadable
[0920/112605:ERROR:process_info.cc(608)] range at 0x97089000, size 0xf84 fully unreadable
[0920/112605:ERROR:process_info.cc(608)] range at 0xa6f2e000, size 0x2000 fully unreadable
[0920/112605:ERROR:process_info.cc(608)] range at 0x9708c000, size 0xf84 fully unreadable
[0920/112605:ERROR:process_info.cc(608)] range at 0xa726f000, size 0x1000 fully unreadable
[0920/112605:ERROR:process_info.cc(608)] range at 0x9708f000, size 0xf84 fully unreadable
[0920/112605:ERROR:process_info.cc(608)] range at 0xa73ae000, size 0x2000 fully unreadable
[0920/112605:ERROR:process_info.cc(608)] range at 0x97092000, size 0xf84 fully unreadable
[0920/112605:ERROR:process_info.cc(608)] range at 0xa74ee000, size 0x2000 fully unreadable
[0920/112605:ERROR:process_info.cc(608)] range at 0x97095000, size 0xf84 fully unreadable
[0920/112605:ERROR:process_info.cc(608)] range at 0xa782f000, size 0x1000 fully unreadable
[0920/112605:ERROR:process_info.cc(608)] range at 0x97098000, size 0xf84 fully unreadable
[0920/112605:ERROR:process_info.cc(608)] range at 0xa7dce000, size 0x2000 fully unreadable
[0920/112605:ERROR:process_info.cc(608)] range at 0x9709b000, size 0xf84 fully unreadable
[0920/112605:ERROR:process_info.cc(608)] range at 0xa7f0e000, size 0x2000 fully unreadable
[0920/112605:ERROR:process_info.cc(608)] range at 0x9709e000, size 0xf84 fully unreadable
[0920/112605:ERROR:process_info.cc(608)] range at 0xa804e000, size 0x2000 fully unreadable
[0920/112605:ERROR:process_info.cc(608)] range at 0x970a1000, size 0xf84 fully unreadable
[0920/112605:ERROR:process_info.cc(608)] range at 0xa818e000, size 0x2000 fully unreadable
[0920/112605:ERROR:process_info.cc(608)] range at 0x970a4000, size 0xf84 fully unreadable
[0920/112605:ERROR:process_info.cc(608)] range at 0xa898f000, size 0x1000 fully unreadable
[0920/112605:ERROR:process_info.cc(608)] range at 0x970a7000, size 0xf84 fully unreadable
[0920/112605:ERROR:process_info.cc(608)] range at 0xa8acf000, size 0x1000 fully unreadable
[0920/112605:ERROR:process_info.cc(608)] range at 0x970aa000, size 0xf84 fully unreadable
[0920/112605:ERROR:process_info.cc(608)] range at 0xa8c0f000, size 0x1000 fully unreadable
[0920/112605:ERROR:process_info.cc(608)] range at 0x970ad000, size 0xf84 fully unreadable
[0920/112605:ERROR:process_info.cc(608)] range at 0xa8d4e000, size 0x2000 fully unreadable
[0920/112605:ERROR:process_info.cc(608)] range at 0x970b0000, size 0xf84 fully unreadable
[0920/112605:ERROR:process_info.cc(608)] range at 0xa8e8e000, size 0x2000 fully unreadable
[0920/112605:ERROR:process_info.cc(608)] range at 0x970b3000, size 0xf84 fully unreadable
[0920/112605:ERROR:process_info.cc(608)] range at 0xa91ce000, size 0x2000 fully unreadable
[0920/112605:ERROR:process_info.cc(608)] range at 0x970b6000, size 0xf84 fully unreadable
[0920/112605:ERROR:process_info.cc(608)] range at 0xa978e000, size 0x2000 fully unreadable
[0920/112605:ERROR:process_info.cc(608)] range at 0x970b9000, size 0xf84 fully unreadable
[0920/112605:ERROR:process_info.cc(608)] range at 0xa98cf000, size 0x1000 fully unreadable
[0920/112605:ERROR:process_info.cc(608)] range at 0x970bc000, size 0xf84 fully unreadable
[0920/112605:ERROR:process_info.cc(608)] range at 0xa9a0e000, size 0x2000 fully unreadable
[0920/112605:ERROR:process_info.cc(608)] range at 0x970bf000, size 0xf84 fully unreadable
[0920/112605:ERROR:process_info.cc(608)] range at 0xa9b4e000, size 0x2000 fully unreadable
[0920/112605:ERROR:process_info.cc(608)] range at 0x970c2000, size 0xf84 fully unreadable
[0920/112605:ERROR:process_info.cc(608)] range at 0xaa12e000, size 0x2000 fully unreadable
[0920/112605:ERROR:process_info.cc(608)] range at 0x970c5000, size 0xf84 fully unreadable
[0920/112605:ERROR:process_info.cc(608)] range at 0xaa26e000, size 0x2000 fully unreadable
[0920/112605:ERROR:process_info.cc(608)] range at 0x970c8000, size 0xf84 fully unreadable
[0920/112605:ERROR:process_info.cc(608)] range at 0xaa3af000, size 0x1000 fully unreadable
[0920/112605:ERROR:process_info.cc(608)] range at 0x970cb000, size 0xf84 fully unreadable
[0920/112605:ERROR:process_info.cc(608)] range at 0xaa6ee000, size 0x2000 fully unreadable
[0920/112605:ERROR:process_info.cc(608)] range at 0x970ce000, size 0xf84 fully unreadable
[0920/112605:ERROR:process_info.cc(608)] range at 0xaa82e000, size 0x2000 fully unreadable
[0920/112605:ERROR:process_info.cc(608)] range at 0x970d1000, size 0xf84 fully unreadable
[0920/112605:ERROR:process_info.cc(608)] range at 0xaae0f000, size 0x1000 fully unreadable
[0920/112605:ERROR:process_info.cc(608)] range at 0x970d4000, size 0xf84 fully unreadable
[0920/112605:ERROR:process_info.cc(608)] range at 0xaaf4f000, size 0x1000 fully unreadable
[0920/112605:ERROR:process_info.cc(608)] range at 0x970d7000, size 0xf84 fully unreadable
[0920/112605:ERROR:process_info.cc(608)] range at 0xab08f000, size 0x1000 fully unreadable
[0920/112605:ERROR:process_info.cc(608)] range at 0x970da000, size 0xf84 fully unreadable
[0920/112605:ERROR:process_info.cc(608)] range at 0xab1ce000, size 0x2000 fully unreadable
[0920/112605:ERROR:process_info.cc(608)] range at 0x970dd000, size 0xf84 fully unreadable
[0920/112605:ERROR:process_info.cc(608)] range at 0xab30f000, size 0x1000 fully unreadable
[0920/112605:ERROR:process_info.cc(608)] range at 0x970e0000, size 0xf84 fully unreadable
[0920/112605:ERROR:process_info.cc(608)] range at 0xabccf000, size 0x1000 fully unreadable
[0920/112605:ERROR:process_info.cc(608)] range at 0x970e3000, size 0xf84 fully unreadable
[0920/112605:ERROR:process_info.cc(608)] range at 0xabe0e000, size 0x2000 fully unreadable
[0920/112605:ERROR:process_info.cc(608)] range at 0x970e6000, size 0xf84 fully unreadable
[0920/112605:ERROR:process_info.cc(608)] range at 0xabf4e000, size 0x2000 fully unreadable
[0920/112605:ERROR:process_info.cc(608)] range at 0x970e9000, size 0xf84 fully unreadable
[0920/112605:ERROR:process_info.cc(608)] range at 0xac08e000, size 0x2000 fully unreadable
[0920/112605:ERROR:process_info.cc(608)] range at 0x970ec000, size 0xf84 fully unreadable
[0920/112605:ERROR:process_info.cc(608)] range at 0xac68e000, size 0x2000 fully unreadable
[0920/112605:ERROR:process_info.cc(608)] range at 0x970ef000, size 0xf84 fully unreadable
[0920/112605:ERROR:process_info.cc(608)] range at 0xac7ce000, size 0x2000 fully unreadable
[0920/112605:ERROR:process_info.cc(608)] range at 0x970f2000, size 0xf84 fully unreadable
[0920/112605:ERROR:process_info.cc(608)] range at 0xac90e000, size 0x2000 fully unreadable
[0920/112605:ERROR:process_info.cc(608)] range at 0x970f5000, size 0xf84 fully unreadable
[0920/112605:ERROR:process_info.cc(608)] range at 0xaca4e000, size 0x2000 fully unreadable
[0920/112605:ERROR:process_info.cc(608)] range at 0x970f8000, size 0xf84 fully unreadable
[0920/112605:ERROR:process_info.cc(608)] range at 0xacb8f000, size 0x1000 fully unreadable
[0920/112605:ERROR:process_info.cc(608)] range at 0x970fb000, size 0xf84 fully unreadable
[0920/112605:ERROR:process_info.cc(608)] range at 0xaccce000, size 0x2000 fully unreadable
[0920/112605:ERROR:process_info.cc(608)] range at 0x970fe000, size 0xf84 fully unreadable
[0920/112605:ERROR:process_info.cc(608)] range at 0xad2af000, size 0x1000 fully unreadable
[0920/112605:ERROR:process_info.cc(608)] range at 0x97101000, size 0xf84 fully unreadable
[0920/112605:ERROR:process_info.cc(608)] range at 0xad3ee000, size 0x2000 fully unreadable
[0920/112605:ERROR:process_info.cc(608)] range at 0x97104000, size 0xf84 fully unreadable
[0920/112605:ERROR:process_info.cc(608)] range at 0xad52e000, size 0x2000 fully unreadable
[0920/112605:ERROR:process_info.cc(608)] range at 0x97107000, size 0xf84 fully unreadable
[0920/112605:ERROR:process_info.cc(608)] range at 0xad86e000, size 0x2000 fully unreadable
[0920/112605:ERROR:process_info.cc(608)] range at 0x9710a000, size 0xf84 fully unreadable
[0920/112605:ERROR:process_info.cc(608)] range at 0xae06e000, size 0x2000 fully unreadable
[0920/112605:ERROR:process_info.cc(608)] range at 0x9710d000, size 0xf84 fully unreadable
[0920/112605:ERROR:process_info.cc(608)] range at 0xae1ae000, size 0x2000 fully unreadable
[0920/112605:ERROR:process_info.cc(608)] range at 0x97110000, size 0xf84 fully unreadable
[0920/112605:ERROR:process_info.cc(608)] range at 0xae2ef000, size 0x1000 fully unreadable
[0920/112605:ERROR:process_info.cc(608)] range at 0x97113000, size 0xf84 fully unreadable
[0920/112605:ERROR:process_info.cc(608)] range at 0xae42f000, size 0x1000 fully unreadable
[0920/112605:ERROR:process_info.cc(608)] range at 0x97116000, size 0xf84 fully unreadable
[0920/112605:ERROR:process_info.cc(608)] range at 0xae56e000, size 0x2000 fully unreadable
[0920/112605:ERROR:process_info.cc(608)] range at 0x97119000, size 0xf84 fully unreadable
[0920/112605:ERROR:process_info.cc(608)] range at 0xae6ae000, size 0x2000 fully unreadable
[0920/112605:ERROR:process_info.cc(608)] range at 0x9711c000, size 0xf84 fully unreadable
[0920/112605:ERROR:process_info.cc(608)] range at 0xaec8e000, size 0x2000 fully unreadable
[0920/112605:ERROR:process_info.cc(608)] range at 0x9711f000, size 0xf84 fully unreadable
[0920/112605:ERROR:process_info.cc(608)] range at 0xaedce000, size 0x2000 fully unreadable
[0920/112605:ERROR:process_info.cc(608)] range at 0x97122000, size 0xf84 fully unreadable
[0920/112605:ERROR:process_info.cc(608)] range at 0xaef0e000, size 0x2000 fully unreadable
[0920/112605:ERROR:process_info.cc(608)] range at 0x97125000, size 0xf84 fully unreadable
[0920/112605:ERROR:process_info.cc(608)] range at 0xaf04e000, size 0x2000 fully unreadable
[0920/112605:ERROR:process_info.cc(608)] range at 0x97128000, size 0xf84 fully unreadable
[0920/112605:ERROR:process_info.cc(608)] range at 0xaf62e000, size 0x2000 fully unreadable
[0920/112605:ERROR:process_info.cc(608)] range at 0x9712b000, size 0xf84 fully unreadable
[0920/112605:ERROR:process_info.cc(608)] range at 0xaf76e000, size 0x2000 fully unreadable
[0920/112605:ERROR:process_info.cc(608)] range at 0x9712e000, size 0xf84 fully unreadable
[0920/112605:ERROR:process_info.cc(608)] range at 0xaf8ae000, size 0x2000 fully unreadable
[0920/112605:ERROR:process_info.cc(608)] range at 0x97131000, size 0xf84 fully unreadable
[0920/112605:ERROR:process_info.cc(608)] range at 0xaf9ee000, size 0x2000 fully unreadable
[0920/112605:ERROR:process_info.cc(608)] range at 0x97134000, size 0xf84 fully unreadable
[0920/112605:ERROR:process_info.cc(608)] range at 0xafb2e000, size 0x2000 fully unreadable
[0920/112605:ERROR:process_info.cc(608)] range at 0x97137000, size 0xf84 fully unreadable
[0920/112605:ERROR:process_info.cc(608)] range at 0xb012e000, size 0x2000 fully unreadable
[0920/112605:ERROR:process_info.cc(608)] range at 0x9713a000, size 0xf84 fully unreadable
[0920/112605:ERROR:process_info.cc(608)] range at 0xb026e000, size 0x2000 fully unreadable
[0920/112605:ERROR:process_info.cc(608)] range at 0x9713d000, size 0xf84 fully unreadable
[0920/112605:ERROR:process_info.cc(608)] range at 0xb03ae000, size 0x2000 fully unreadable
[0920/112605:ERROR:process_info.cc(608)] range at 0x97140000, size 0xf84 fully unreadable
[0920/112605:ERROR:process_info.cc(608)] range at 0xb04ee000, size 0x2000 fully unreadable
[0920/112605:ERROR:process_info.cc(608)] range at 0x97143000, size 0xf84 fully unreadable
[0920/112605:ERROR:process_info.cc(608)] range at 0xb082e000, size 0x2000 fully unreadable
[0920/112605:ERROR:process_info.cc(608)] range at 0x97146000, size 0xf84 fully unreadable
[0920/112605:ERROR:process_info.cc(608)] range at 0xb102f000, size 0x1000 fully unreadable
[0920/112605:ERROR:process_info.cc(608)] range at 0x97149000, size 0xf84 fully unreadable
[0920/112605:ERROR:process_info.cc(608)] range at 0xb116e000, size 0x2000 fully unreadable
[0920/112605:ERROR:process_info.cc(608)] range at 0x9714c000, size 0xf84 fully unreadable
[0920/112605:ERROR:process_info.cc(608)] range at 0xb12ae000, size 0x2000 fully unreadable
[0920/112605:ERROR:process_info.cc(608)] range at 0x9714f000, size 0xf84 fully unreadable
[0920/112605:ERROR:process_info.cc(608)] range at 0xb13ee000, size 0x2000 fully unreadable
[0920/112605:ERROR:process_info.cc(608)] range at 0x97152000, size 0xf84 fully unreadable
[0920/112605:ERROR:process_info.cc(608)] range at 0xb152e000, size 0x2000 fully unreadable
[0920/112605:ERROR:process_info.cc(608)] range at 0x97155000, size 0xf84 fully unreadable
[0920/112605:ERROR:process_info.cc(608)] range at 0xb186f000, size 0x1000 fully unreadable
[0920/112605:ERROR:process_info.cc(608)] range at 0x97158000, size 0xf84 fully unreadable
[0920/112605:ERROR:process_info.cc(608)] range at 0xb1e6e000, size 0x2000 fully unreadable
[0920/112605:ERROR:process_info.cc(608)] range at 0x9715b000, size 0xf84 fully unreadable
[0920/112605:ERROR:process_info.cc(608)] range at 0xb1faf000, size 0x1000 fully unreadable
[0920/112605:ERROR:process_info.cc(608)] range at 0x9715e000, size 0xf84 fully unreadable
[0920/112605:ERROR:process_info.cc(608)] range at 0xb20ef000, size 0x1000 fully unreadable
[0920/112605:ERROR:process_info.cc(608)] range at 0x97161000, size 0xf84 fully unreadable
[0920/112605:ERROR:process_info.cc(608)] range at 0xb222e000, size 0x2000 fully unreadable
[0920/112605:ERROR:process_info.cc(608)] range at 0x97164000, size 0xf84 fully unreadable
[0920/112605:ERROR:process_info.cc(608)] range at 0xb282e000, size 0x2000 fully unreadable
[0920/112605:ERROR:process_info.cc(608)] range at 0x97167000, size 0xf84 fully unreadable
[0920/112605:ERROR:process_info.cc(608)] range at 0xb296e000, size 0x2000 fully unreadable
[0920/112605:ERROR:process_info.cc(608)] range at 0x9716a000, size 0xf84 fully unreadable
[0920/112605:ERROR:process_info.cc(608)] range at 0xb2aaf000, size 0x1000 fully unreadable
[0920/112605:ERROR:process_info.cc(608)] range at 0x9716d000, size 0xf84 fully unreadable
[0920/112605:ERROR:process_info.cc(608)] range at 0xb2bef000, size 0x1000 fully unreadable
[0920/112605:ERROR:process_info.cc(608)] range at 0xb2dcc000, size 0xf84 fully unreadable
[0920/112605:ERROR:process_info.cc(608)] range at 0xb2f3e000, size 0x2000 fully unreadable
[0920/112605:ERROR:process_info.cc(608)] range at 0xb2dcf000, size 0xf84 fully unreadable
[0920/112605:ERROR:process_info.cc(608)] range at 0xb307e000, size 0x2000 fully unreadable
[0920/112605:ERROR:process_info.cc(608)] range at 0xb2dd2000, size 0xf84 fully unreadable
[0920/112605:ERROR:process_info.cc(608)] range at 0xb371e000, size 0x2000 fully unreadable
[0920/112605:ERROR:process_info.cc(608)] range at 0xb2dd5000, size 0xf84 fully unreadable
[0920/112605:ERROR:process_info.cc(608)] range at 0xb385f000, size 0x1000 fully unreadable
[0920/112605:ERROR:process_info.cc(608)] range at 0xb2dd8000, size 0xf84 fully unreadable
[0920/112605:ERROR:process_info.cc(608)] range at 0xb6b3f000, size 0x1000 fully unreadable
[0920/112605:ERROR:process_info.cc(608)] range at 0xb2ddb000, size 0xf84 fully unreadable
[0920/112605:ERROR:process_info.cc(608)] range at 0xb6c7e000, size 0x2000 fully unreadable
[0920/112605:ERROR:process_info.cc(608)] range at 0xb2dde000, size 0xf84 fully unreadable
[0920/112605:ERROR:process_info.cc(608)] range at 0xb6dbe000, size 0x2000 fully unreadable
[0920/112605:ERROR:process_info.cc(608)] range at 0xb2de1000, size 0xf84 fully unreadable
[0920/112605:ERROR:process_info.cc(608)] range at 0xb6efe000, size 0x2000 fully unreadable
[0920/112605:ERROR:process_info.cc(608)] range at 0xb2de4000, size 0xf84 fully unreadable
[0920/112605:ERROR:process_info.cc(608)] range at 0xb703f000, size 0x1000 fully unreadable
[0920/112605:ERROR:process_info.cc(608)] range at 0xb2de7000, size 0xf84 fully unreadable
[0920/112605:ERROR:process_info.cc(608)] range at 0xb76fe000, size 0x2000 fully unreadable
[0920/112605:ERROR:process_info.cc(608)] range at 0xb2dea000, size 0xf84 fully unreadable
[0920/112605:ERROR:process_info.cc(608)] range at 0xb783e000, size 0x2000 fully unreadable
[0920/112605:ERROR:process_info.cc(608)] range at 0xb2ded000, size 0xf84 fully unreadable
[0920/112605:ERROR:process_info.cc(608)] range at 0xb797f000, size 0x1000 fully unreadable
[0920/112605:ERROR:process_info.cc(608)] range at 0xb2df0000, size 0xf84 fully unreadable
[0920/112605:ERROR:process_info.cc(608)] range at 0xb7abe000, size 0x2000 fully unreadable
[0920/112605:ERROR:process_info.cc(608)] range at 0xb2df3000, size 0xf84 fully unreadable
[0920/112605:ERROR:process_info.cc(608)] range at 0xb7dfe000, size 0x2000 fully unreadable
[0920/112605:ERROR:process_info.cc(608)] range at 0xb2df6000, size 0xf84 fully unreadable
[0920/112605:ERROR:process_info.cc(608)] range at 0xb813f000, size 0x1000 fully unreadable
[0920/112605:ERROR:process_info.cc(608)] range at 0xb2df9000, size 0xf84 fully unreadable
[0920/112605:ERROR:process_info.cc(608)] range at 0xb879f000, size 0x1000 fully unreadable
[0920/112605:ERROR:process_info.cc(608)] range at 0xb2dfc000, size 0xf84 fully unreadable
[0920/112605:ERROR:process_info.cc(608)] range at 0xb88de000, size 0x2000 fully unreadable
[0920/112605:ERROR:process_info.cc(608)] range at 0xb2dff000, size 0xf84 fully unreadable
[0920/112605:ERROR:process_info.cc(608)] range at 0xb8a1e000, size 0x2000 fully unreadable
[0920/112605:ERROR:process_info.cc(608)] range at 0xb2c02000, size 0xf84 fully unreadable
[0920/112605:ERROR:process_info.cc(608)] range at 0xb8b5f000, size 0x1000 fully unreadable
[0920/112605:ERROR:process_info.cc(608)] range at 0xb2c05000, size 0xf84 fully unreadable
[0920/112605:ERROR:process_info.cc(608)] range at 0xb8c9e000, size 0x2000 fully unreadable
[0920/112605:ERROR:process_info.cc(608)] range at 0xb2c08000, size 0xf84 fully unreadable
[0920/112605:ERROR:process_info.cc(608)] range at 0xb933e000, size 0x2000 fully unreadable
[0920/112605:ERROR:process_info.cc(608)] range at 0xb2c0b000, size 0xf84 fully unreadable
[0920/112605:ERROR:process_info.cc(608)] range at 0xb947e000, size 0x2000 fully unreadable
[0920/112605:ERROR:process_info.cc(608)] range at 0xb2c0e000, size 0xf84 fully unreadable
[0920/112605:ERROR:process_info.cc(608)] range at 0xb97be000, size 0x2000 fully unreadable
[0920/112605:ERROR:process_info.cc(608)] range at 0xb2c11000, size 0xf84 fully unreadable
[0920/112605:ERROR:process_info.cc(608)] range at 0xb98fe000, size 0x2000 fully unreadable
[0920/112605:ERROR:process_info.cc(608)] range at 0xb2c14000, size 0xf84 fully unreadable
[0920/112605:ERROR:process_info.cc(608)] range at 0xb9a3e000, size 0x2000 fully unreadable
[0920/112605:ERROR:process_info.cc(608)] range at 0xb2c17000, size 0xf84 fully unreadable
[0920/112605:ERROR:process_info.cc(608)] range at 0xb9b7f000, size 0x1000 fully unreadable
[0920/112605:ERROR:process_info.cc(608)] range at 0xb2c1a000, size 0xf84 fully unreadable
[0920/112605:ERROR:process_info.cc(608)] range at 0xba1fe000, size 0x2000 fully unreadable
[0920/112605:ERROR:process_info.cc(608)] range at 0xb2c1d000, size 0xf84 fully unreadable
[0920/112605:ERROR:process_info.cc(608)] range at 0xba33e000, size 0x2000 fully unreadable
[0920/112605:ERROR:process_info.cc(608)] range at 0xb2c20000, size 0xf84 fully unreadable
[0920/112605:ERROR:process_info.cc(608)] range at 0xba47e000, size 0x2000 fully unreadable
[0920/112605:ERROR:process_info.cc(608)] range at 0xb2c23000, size 0xf84 fully unreadable
[0920/112605:ERROR:process_info.cc(608)] range at 0xba5bf000, size 0x1000 fully unreadable
[0920/112605:ERROR:process_info.cc(608)] range at 0xb2c26000, size 0xf84 fully unreadable
[0920/112605:ERROR:process_info.cc(608)] range at 0xba6fe000, size 0x2000 fully unreadable
[0920/112605:ERROR:process_info.cc(608)] range at 0xb2c29000, size 0xf84 fully unreadable
[0920/112605:ERROR:process_info.cc(608)] range at 0xba83f000, size 0x1000 fully unreadable
[0920/112605:ERROR:process_info.cc(608)] range at 0xb2c2c000, size 0xf84 fully unreadable
[0920/112605:ERROR:process_info.cc(608)] range at 0xb2c53000, size 0xf84 fully unreadable
[0920/112605:ERROR:process_info.cc(608)] range at 0xbb99f000, size 0x1000 fully unreadable
[0920/112605:ERROR:process_info.cc(608)] range at 0xb2c56000, size 0xf84 fully unreadable
[0920/112605:ERROR:process_info.cc(608)] range at 0xbc41e000, size 0x2000 fully unreadable
[0920/112605:ERROR:process_info.cc(608)] range at 0xb2c59000, size 0xf84 fully unreadable
[0920/112605:ERROR:process_info.cc(608)] range at 0xbc51e000, size 0x2000 fully unreadable
[0920/112605:ERROR:process_info.cc(608)] range at 0xb2c5c000, size 0xf84 fully unreadable
[0920/112605:ERROR:process_info.cc(608)] range at 0xbc85e000, size 0x2000 fully unreadable
[0920/112605:ERROR:process_info.cc(608)] range at 0xb2c5f000, size 0xf84 fully unreadable
[0920/112605:ERROR:process_info.cc(608)] range at 0xbdeae000, size 0x2000 fully unreadable
[0920/112605:ERROR:process_info.cc(608)] range at 0xb2c62000, size 0xf84 fully unreadable
[0920/112605:ERROR:process_info.cc(608)] range at 0xbe50e000, size 0x2000 fully unreadable
[0920/112605:ERROR:process_info.cc(608)] range at 0xb2c65000, size 0xf84 fully unreadable
[0920/112605:ERROR:process_info.cc(608)] range at 0xbe60f000, size 0x1000 fully unreadable
[0920/112605:ERROR:process_info.cc(608)] range at 0xb2c68000, size 0xf84 fully unreadable
[0920/112605:ERROR:process_info.cc(608)] range at 0xbe74e000, size 0x2000 fully unreadable
[0920/112605:ERROR:process_info.cc(608)] range at 0xb2c6b000, size 0xf84 fully unreadable
[0920/112605:ERROR:process_info.cc(608)] range at 0xbe88f000, size 0x1000 fully unreadable
[0920/112605:ERROR:process_info.cc(608)] range at 0xb2c6e000, size 0xf84 fully unreadable
[0920/112605:ERROR:process_info.cc(608)] range at 0xbebce000, size 0x2000 fully unreadable
[0920/112605:ERROR:process_info.cc(608)] range at 0xb2c71000, size 0xf84 fully unreadable
[0920/112605:ERROR:process_info.cc(608)] range at 0xbf26e000, size 0x2000 fully unreadable
[0920/112605:ERROR:process_info.cc(608)] range at 0xb2c74000, size 0xf84 fully unreadable
[0920/112605:ERROR:process_info.cc(608)] range at 0xbf3ae000, size 0x2000 fully unreadable
[0920/112605:ERROR:process_info.cc(608)] range at 0xb2c77000, size 0xf84 fully unreadable
[0920/112605:ERROR:process_info.cc(608)] range at 0xbf4ee000, size 0x2000 fully unreadable
[0920/112605:ERROR:process_info.cc(608)] range at 0xb2c7a000, size 0xf84 fully unreadable
[0920/112605:ERROR:process_info.cc(608)] range at 0xbf62f000, size 0x1000 fully unreadable
[0920/112605:ERROR:process_info.cc(608)] range at 0xb2c7d000, size 0xf84 fully unreadable
[0920/112605:ERROR:process_info.cc(608)] range at 0xbf76f000, size 0x1000 fully unreadable
[0920/112605:ERROR:process_info.cc(608)] range at 0xb2c80000, size 0xf84 fully unreadable
[0920/112605:ERROR:process_info.cc(608)] range at 0xbfe0e000, size 0x2000 fully unreadable
[0920/112605:ERROR:process_info.cc(608)] range at 0xb2c83000, size 0xf84 fully unreadable
[0920/112605:ERROR:process_info.cc(608)] range at 0xbff4e000, size 0x2000 fully unreadable
[0920/112605:ERROR:process_info.cc(608)] range at 0xb2c86000, size 0xf84 fully unreadable
[0920/112605:ERROR:process_info.cc(608)] range at 0xc008f000, size 0x1000 fully unreadable
[0920/112605:ERROR:process_info.cc(608)] range at 0xb2c89000, size 0xf84 fully unreadable
[0920/112605:ERROR:process_info.cc(608)] range at 0xc01cf000, size 0x1000 fully unreadable
[0920/112605:ERROR:process_info.cc(608)] range at 0xb2c8c000, size 0xf84 fully unreadable
[0920/112605:ERROR:process_info.cc(608)] range at 0xc050e000, size 0x2000 fully unreadable
[0920/112605:ERROR:process_info.cc(608)] range at 0xb2c8f000, size 0xf84 fully unreadable
[0920/112605:ERROR:process_info.cc(608)] range at 0xc064e000, size 0x2000 fully unreadable
[0920/112605:ERROR:process_info.cc(608)] range at 0xb2c92000, size 0xf84 fully unreadable
[0920/112605:ERROR:process_info.cc(608)] range at 0xc098f000, size 0x1000 fully unreadable
[0920/112605:ERROR:process_info.cc(608)] range at 0xb2c95000, size 0xf84 fully unreadable
[0920/112605:ERROR:process_info.cc(608)] range at 0xc124e000, size 0x2000 fully unreadable
[0920/112605:ERROR:process_info.cc(608)] range at 0xb2c98000, size 0xf84 fully unreadable
[0920/112605:ERROR:process_info.cc(608)] range at 0xc138e000, size 0x2000 fully unreadable
[0920/112605:ERROR:process_info.cc(608)] range at 0xb2c9b000, size 0xf84 fully unreadable
[0920/112605:ERROR:process_info.cc(608)] range at 0xc14ce000, size 0x2000 fully unreadable
[0920/112605:ERROR:process_info.cc(608)] range at 0xb2c9e000, size 0xf84 fully unreadable
[0920/112605:ERROR:process_info.cc(608)] range at 0xb2ca1000, size 0xf84 fully unreadable
[0920/112605:ERROR:process_info.cc(608)] range at 0xb2ca4000, size 0xf84 fully unreadable
[0920/112605:ERROR:process_info.cc(608)] range at 0xb2ca7000, size 0xf84 fully unreadable
[0920/112605:ERROR:process_info.cc(608)] range at 0xb2caa000, size 0xf84 fully unreadable
[0920/112605:ERROR:process_info.cc(608)] range at 0xb2cad000, size 0xf84 fully unreadable
[0920/112605:ERROR:process_info.cc(608)] range at 0xb2cb0000, size 0xf84 fully unreadable
[0920/112605:ERROR:process_info.cc(608)] range at 0xb2cb3000, size 0xf84 fully unreadable
[0920/112605:ERROR:process_info.cc(608)] range at 0xb2cb6000, size 0xf84 fully unreadable
[0920/112605:ERROR:process_info.cc(608)] range at 0xb2cb9000, size 0xf84 fully unreadable
[0920/112605:ERROR:process_info.cc(608)] range at 0xb2cbc000, size 0xf84 fully unreadable
[0920/112605:ERROR:process_info.cc(608)] range at 0xb2cbf000, size 0xf84 fully unreadable
[0920/112605:ERROR:process_info.cc(608)] range at 0xb2cc2000, size 0xf84 fully unreadable
[0920/112605:ERROR:process_info.cc(608)] range at 0xb2cc5000, size 0xf84 fully unreadable
[0920/112605:ERROR:process_info.cc(608)] range at 0xb2cc8000, size 0xf84 fully unreadable
[0920/112605:ERROR:process_info.cc(608)] range at 0xb2ccb000, size 0xf84 fully unreadable
[0920/112605:ERROR:process_info.cc(608)] range at 0xb2cce000, size 0xf84 fully unreadable
[0920/112605:ERROR:process_info.cc(608)] range at 0xb2cd1000, size 0xf84 fully unreadable
[0920/112605:ERROR:process_info.cc(608)] range at 0xc15cf000, size 0x1000 fully unreadable
[0920/112605:ERROR:process_info.cc(608)] range at 0xb2cd4000, size 0xf84 fully unreadable
[0920/112605:ERROR:process_info.cc(608)] range at 0xc16cf000, size 0x1000 fully unreadable
[0920/112605:ERROR:process_info.cc(608)] range at 0xb2cd7000, size 0xf84 fully unreadable
[0920/112605:ERROR:process_info.cc(608)] range at 0xc17cf000, size 0x1000 fully unreadable
[0920/112605:ERROR:process_info.cc(608)] range at 0xb2cda000, size 0xf84 fully unreadable
[0920/112605:ERROR:process_info.cc(608)] range at 0xc18cf000, size 0x1000 fully unreadable
[0920/112605:ERROR:process_info.cc(608)] range at 0xb2cdd000, size 0xf84 fully unreadable
[0920/112605:ERROR:process_info.cc(608)] range at 0xc1a0f000, size 0x1000 fully unreadable
[0920/112605:ERROR:process_info.cc(608)] range at 0xb2ce0000, size 0xf84 fully unreadable
[0920/112605:ERROR:process_info.cc(608)] range at 0xc1b4f000, size 0x1000 fully unreadable
[0920/112605:ERROR:process_info.cc(608)] range at 0xb2ce3000, size 0xf84 fully unreadable
[0920/112605:ERROR:process_info.cc(608)] range at 0xc1c8e000, size 0x2000 fully unreadable
[0920/112605:ERROR:process_info.cc(608)] range at 0xb2ce6000, size 0xf84 fully unreadable
[0920/112605:ERROR:process_info.cc(608)] range at 0xc1dce000, size 0x2000 fully unreadable
[0920/112605:ERROR:process_info.cc(608)] range at 0xb2ce9000, size 0xf84 fully unreadable
[0920/112605:ERROR:process_info.cc(608)] range at 0xc1f0e000, size 0x2000 fully unreadable
[0920/112605:ERROR:process_info.cc(608)] range at 0xb2cec000, size 0xf84 fully unreadable
[0920/112605:ERROR:process_info.cc(608)] range at 0xc204f000, size 0x1000 fully unreadable
[0920/112605:ERROR:process_info.cc(608)] range at 0xb2cef000, size 0xf84 fully unreadable
[0920/112605:ERROR:process_info.cc(608)] range at 0xc218e000, size 0x2000 fully unreadable
[0920/112605:ERROR:process_info.cc(608)] range at 0xb2cf2000, size 0xf84 fully unreadable
[0920/112605:ERROR:process_info.cc(608)] range at 0xc22ce000, size 0x2000 fully unreadable
[0920/112605:ERROR:process_info.cc(608)] range at 0xb2cf5000, size 0xf84 fully unreadable
[0920/112605:ERROR:process_info.cc(608)] range at 0xc240e000, size 0x2000 fully unreadable
[0920/112605:ERROR:process_info.cc(608)] range at 0xb2cf8000, size 0xf84 fully unreadable
[0920/112605:ERROR:process_info.cc(608)] range at 0xcb81e000, size 0x2000 fully unreadable
[0920/112605:ERROR:process_info.cc(608)] range at 0xb2d8b000, size 0xf84 fully unreadable
[0920/112605:ERROR:process_info.cc(608)] range at 0xcb95f000, size 0x1000 fully unreadable
[0920/112605:ERROR:process_info.cc(608)] range at 0xb2d8e000, size 0xf84 fully unreadable
[0920/112605:ERROR:process_info.cc(608)] range at 0xcba9e000, size 0x2000 fully unreadable
[0920/112605:ERROR:process_info.cc(608)] range at 0xb2d91000, size 0xf84 fully unreadable
[0920/112605:ERROR:process_info.cc(608)] range at 0xcbbdf000, size 0x1000 fully unreadable
[0920/112605:ERROR:process_info.cc(608)] range at 0xb2d94000, size 0xf84 fully unreadable
[0920/112605:ERROR:process_info.cc(608)] range at 0xcbd1e000, size 0x2000 fully unreadable
[0920/112605:ERROR:process_info.cc(608)] range at 0xb2d97000, size 0xf84 fully unreadable
[0920/112605:ERROR:process_info.cc(608)] range at 0xcbe5e000, size 0x2000 fully unreadable
[0920/112605:ERROR:process_info.cc(608)] range at 0xb2d9a000, size 0xf84 fully unreadable
[0920/112605:ERROR:process_info.cc(608)] range at 0xcc59e000, size 0x2000 fully unreadable
[0920/112605:ERROR:process_info.cc(608)] range at 0xb2d9d000, size 0xf84 fully unreadable
[0920/112605:ERROR:process_info.cc(608)] range at 0xcc6df000, size 0x1000 fully unreadable
[0920/112605:ERROR:process_info.cc(608)] range at 0xb2da0000, size 0xf84 fully unreadable
[0920/112605:ERROR:process_info.cc(608)] range at 0xcca1e000, size 0x2000 fully unreadable
[0920/112605:ERROR:process_info.cc(608)] range at 0xb2da3000, size 0xf84 fully unreadable
[0920/112605:ERROR:process_info.cc(608)] range at 0xccb5e000, size 0x2000 fully unreadable
[0920/112605:ERROR:process_info.cc(608)] range at 0xb2da6000, size 0xf84 fully unreadable
[0920/112605:ERROR:process_info.cc(608)] range at 0xccc9e000, size 0x2000 fully unreadable
[0920/112605:ERROR:process_info.cc(608)] range at 0xb2da9000, size 0xf84 fully unreadable
[0920/112605:ERROR:process_info.cc(608)] range at 0xccdde000, size 0x2000 fully unreadable
[0920/112605:ERROR:process_info.cc(608)] range at 0xb2dac000, size 0xf84 fully unreadable
[0920/112605:ERROR:process_info.cc(608)] range at 0xcd51e000, size 0x2000 fully unreadable
[0920/112605:ERROR:process_info.cc(608)] range at 0xb2daf000, size 0xf84 fully unreadable
[0920/112605:ERROR:process_info.cc(608)] range at 0xcd65e000, size 0x2000 fully unreadable
[0920/112605:ERROR:process_info.cc(608)] range at 0xb2db2000, size 0xf84 fully unreadable
[0920/112605:ERROR:process_info.cc(608)] range at 0xcd79e000, size 0x2000 fully unreadable
[0920/112605:ERROR:process_info.cc(608)] range at 0xb2db5000, size 0xf84 fully unreadable
[0920/112605:ERROR:process_info.cc(608)] range at 0xcd8df000, size 0x1000 fully unreadable
[0920/112605:ERROR:process_info.cc(608)] range at 0xb2db8000, size 0xf84 fully unreadable
[0920/112605:ERROR:process_info.cc(608)] range at 0xcda1e000, size 0x2000 fully unreadable
[0920/112605:ERROR:process_info.cc(608)] range at 0xb2dbb000, size 0xf84 fully unreadable
[0920/112605:ERROR:process_info.cc(608)] range at 0xcdb5f000, size 0x1000 fully unreadable
[0920/112605:ERROR:process_info.cc(608)] range at 0xb2dbe000, size 0xf84 fully unreadable
[0920/112605:ERROR:process_info.cc(608)] range at 0xce29e000, size 0x2000 fully unreadable
[0920/112605:ERROR:process_info.cc(608)] range at 0xb2dc1000, size 0xf84 fully unreadable
[0920/112605:ERROR:process_info.cc(608)] range at 0xce5de000, size 0x2000 fully unreadable
[0920/112605:ERROR:process_info.cc(608)] range at 0xb2dc4000, size 0xf84 fully unreadable
[0920/112605:ERROR:process_info.cc(608)] range at 0xce71e000, size 0x2000 fully unreadable
[0920/112605:ERROR:process_info.cc(608)] range at 0xb2dc7000, size 0xf84 fully unreadable
[0920/112605:ERROR:process_info.cc(608)] range at 0xce85e000, size 0x2000 fully unreadable
[0920/112605:ERROR:process_info.cc(608)] range at 0xb2c2f000, size 0xf84 fully unreadable
[0920/112605:ERROR:process_info.cc(608)] range at 0xce99e000, size 0x2000 fully unreadable
[0920/112605:ERROR:process_info.cc(608)] range at 0xb2c32000, size 0xf84 fully unreadable
[0920/112605:ERROR:process_info.cc(608)] range at 0xceade000, size 0x2000 fully unreadable
[0920/112605:ERROR:process_info.cc(608)] range at 0xb2c35000, size 0xf84 fully unreadable
[0920/112605:ERROR:process_info.cc(608)] range at 0xcf23e000, size 0x2000 fully unreadable
[0920/112605:ERROR:process_info.cc(608)] range at 0xb2c38000, size 0xf84 fully unreadable
[0920/112605:ERROR:process_info.cc(608)] range at 0xcf37e000, size 0x2000 fully unreadable
[0920/112605:ERROR:process_info.cc(608)] range at 0xb2c3b000, size 0xf84 fully unreadable
[0920/112605:ERROR:process_info.cc(608)] range at 0xcf4be000, size 0x2000 fully unreadable
[0920/112605:ERROR:process_info.cc(608)] range at 0xb2c3e000, size 0xf84 fully unreadable
[0920/112605:ERROR:process_info.cc(608)] range at 0xcf5fe000, size 0x2000 fully unreadable
[0920/112605:ERROR:process_info.cc(608)] range at 0xb2c41000, size 0xf84 fully unreadable
[0920/112605:ERROR:process_info.cc(608)] range at 0xcf73e000, size 0x2000 fully unreadable
[0920/112605:ERROR:process_info.cc(608)] range at 0xb2c44000, size 0xf84 fully unreadable
[0920/112605:ERROR:process_info.cc(608)] range at 0xcf87f000, size 0x1000 fully unreadable
[0920/112605:ERROR:process_info.cc(608)] range at 0xb2c47000, size 0xf84 fully unreadable
[0920/112605:ERROR:process_info.cc(608)] range at 0xcffbe000, size 0x2000 fully unreadable
[0920/112605:ERROR:process_info.cc(608)] range at 0xb2c4a000, size 0xf84 fully unreadable
[0920/112605:ERROR:process_info.cc(608)] range at 0xd00ff000, size 0x1000 fully unreadable
[0920/112605:ERROR:process_info.cc(608)] range at 0xb2c4d000, size 0xf84 fully unreadable
[0920/112605:ERROR:process_info.cc(608)] range at 0xd043e000, size 0x2000 fully unreadable
[0920/112605:ERROR:process_info.cc(608)] range at 0xb2c50000, size 0xf84 fully unreadable
[0920/112605:ERROR:process_info.cc(608)] range at 0xd057e000, size 0x2000 fully unreadable
[0920/112605:ERROR:process_info.cc(608)] range at 0xb2cfb000, size 0xf84 fully unreadable
[0920/112605:ERROR:process_info.cc(608)] range at 0xd06be000, size 0x2000 fully unreadable
[0920/112605:ERROR:process_info.cc(608)] range at 0xb2cfe000, size 0xf84 fully unreadable
[0920/112605:ERROR:process_info.cc(608)] range at 0xd07fe000, size 0x2000 fully unreadable
[0920/112605:ERROR:process_info.cc(608)] range at 0xb2d01000, size 0xf84 fully unreadable
[0920/112605:ERROR:process_info.cc(608)] range at 0xd093e000, size 0x2000 fully unreadable
[0920/112605:ERROR:process_info.cc(608)] range at 0xb2d04000, size 0xf84 fully unreadable
[0920/112605:ERROR:process_info.cc(608)] range at 0xd107e000, size 0x2000 fully unreadable
[0920/112605:ERROR:process_info.cc(608)] range at 0xb2d07000, size 0xf84 fully unreadable
[0920/112605:ERROR:process_info.cc(608)] range at 0xd11be000, size 0x2000 fully unreadable
[0920/112605:ERROR:process_info.cc(608)] range at 0xb2d0a000, size 0xf84 fully unreadable
[0920/112605:ERROR:process_info.cc(608)] range at 0xd12fe000, size 0x2000 fully unreadable
[0920/112605:ERROR:process_info.cc(608)] range at 0xb2d0d000, size 0xf84 fully unreadable
[0920/112605:ERROR:process_info.cc(608)] range at 0xd163e000, size 0x2000 fully unreadable
[0920/112605:ERROR:process_info.cc(608)] range at 0xb2d10000, size 0xf84 fully unreadable
[0920/112605:ERROR:process_info.cc(608)] range at 0xd177f000, size 0x1000 fully unreadable
[0920/112605:ERROR:process_info.cc(608)] range at 0xb2d13000, size 0xf84 fully unreadable
[0920/112605:ERROR:process_info.cc(608)] range at 0xd1abe000, size 0x2000 fully unreadable
[0920/112605:ERROR:process_info.cc(608)] range at 0xb2d16000, size 0xf84 fully unreadable
[0920/112605:ERROR:process_info.cc(608)] range at 0xd1bfe000, size 0x2000 fully unreadable
[0920/112605:ERROR:process_info.cc(608)] range at 0xb2d19000, size 0xf84 fully unreadable
[0920/112605:ERROR:process_info.cc(608)] range at 0xd235e000, size 0x2000 fully unreadable
[0920/112605:ERROR:process_info.cc(608)] range at 0xb2d1c000, size 0xf84 fully unreadable
[0920/112605:ERROR:process_info.cc(608)] range at 0xd249e000, size 0x2000 fully unreadable
[0920/112605:ERROR:process_info.cc(608)] range at 0xb2d1f000, size 0xf84 fully unreadable
[0920/112605:ERROR:process_info.cc(608)] range at 0xd25de000, size 0x2000 fully unreadable
[0920/112605:ERROR:process_info.cc(608)] range at 0xb2d22000, size 0xf84 fully unreadable
[0920/112605:ERROR:process_info.cc(608)] range at 0xd271e000, size 0x2000 fully unreadable
[0920/112605:ERROR:process_info.cc(608)] range at 0xb2d25000, size 0xf84 fully unreadable
[0920/112605:ERROR:process_info.cc(608)] range at 0xd285e000, size 0x2000 fully unreadable
[0920/112605:ERROR:process_info.cc(608)] range at 0xb2d28000, size 0xf84 fully unreadable
[0920/112605:ERROR:process_info.cc(608)] range at 0xd299e000, size 0x2000 fully unreadable
[0920/112605:ERROR:process_info.cc(608)] range at 0xb2d2b000, size 0xf84 fully unreadable
[0920/112605:ERROR:process_info.cc(608)] range at 0xd317e000, size 0x2000 fully unreadable
[0920/112605:ERROR:process_info.cc(608)] range at 0xb2d2e000, size 0xf84 fully unreadable
[0920/112605:ERROR:process_info.cc(608)] range at 0xd32be000, size 0x2000 fully unreadable
[0920/112605:ERROR:process_info.cc(608)] range at 0xb2d31000, size 0xf84 fully unreadable
[0920/112605:ERROR:process_info.cc(608)] range at 0xd33fe000, size 0x2000 fully unreadable
[0920/112605:ERROR:process_info.cc(608)] range at 0xb2d34000, size 0xf84 fully unreadable
[0920/112605:ERROR:process_info.cc(608)] range at 0xd353e000, size 0x2000 fully unreadable
[0920/112605:ERROR:process_info.cc(608)] range at 0xb2d37000, size 0xf84 fully unreadable
[0920/112605:ERROR:process_info.cc(608)] range at 0xd367e000, size 0x2000 fully unreadable
[0920/112605:ERROR:process_info.cc(608)] range at 0xb2d3a000, size 0xf84 fully unreadable
[0920/112605:ERROR:process_info.cc(608)] range at 0xd37be000, size 0x2000 fully unreadable
[0920/112605:ERROR:process_info.cc(608)] range at 0xb2d3d000, size 0xf84 fully unreadable
[0920/112605:ERROR:process_info.cc(608)] range at 0xd38fe000, size 0x2000 fully unreadable
[0920/112605:ERROR:process_info.cc(608)] range at 0xb2d40000, size 0xf84 fully unreadable
[0920/112605:ERROR:process_info.cc(608)] range at 0xd3c3e000, size 0x2000 fully unreadable
[0920/112605:ERROR:process_info.cc(608)] range at 0xb2d43000, size 0xf84 fully unreadable
[0920/112605:ERROR:process_info.cc(608)] range at 0xd439e000, size 0x2000 fully unreadable
[0920/112605:ERROR:process_info.cc(608)] range at 0xb2d46000, size 0xf84 fully unreadable
[0920/112605:ERROR:process_info.cc(608)] range at 0xd44de000, size 0x2000 fully unreadable
[0920/112605:ERROR:process_info.cc(608)] range at 0xb2d49000, size 0xf84 fully unreadable
[0920/112605:ERROR:process_info.cc(608)] range at 0xd461e000, size 0x2000 fully unreadable
[0920/112605:ERROR:process_info.cc(608)] range at 0xb2d4c000, size 0xf84 fully unreadable
[0920/112605:ERROR:process_info.cc(608)] range at 0xd495e000, size 0x2000 fully unreadable
[0920/112605:ERROR:process_info.cc(608)] range at 0xb2d4f000, size 0xf84 fully unreadable
[0920/112605:ERROR:process_info.cc(608)] range at 0xd4a9f000, size 0x1000 fully unreadable
[0920/112605:ERROR:process_info.cc(608)] range at 0xb2d52000, size 0xf84 fully unreadable
[0920/112605:ERROR:process_info.cc(608)] range at 0xd4bde000, size 0x2000 fully unreadable
[0920/112605:ERROR:process_info.cc(608)] range at 0xd53de000, size 0x2000 fully unreadable
[0920/112605:ERROR:process_info.cc(608)] range at 0xd551f000, size 0x1000 fully unreadable
[0920/112605:ERROR:process_info.cc(608)] range at 0xd585e000, size 0x2000 fully unreadable
[0920/112605:ERROR:process_info.cc(608)] range at 0xd599e000, size 0x2000 fully unreadable
[0920/112605:ERROR:process_info.cc(608)] range at 0xd5ade000, size 0x2000 fully unreadable
[0920/112605:ERROR:process_info.cc(608)] range at 0xd5c1e000, size 0x2000 fully unreadable
[0920/112605:ERROR:process_info.cc(608)] range at 0xd5d5e000, size 0x2000 fully unreadable
[0920/112605:ERROR:process_info.cc(608)] range at 0xd609e000, size 0x2000 fully unreadable
[0920/112605:ERROR:process_info.cc(608)] range at 0xd681f000, size 0x1000 fully unreadable
[0920/112605:ERROR:process_info.cc(608)] range at 0xd695e000, size 0x2000 fully unreadable
[0920/112605:ERROR:process_info.cc(608)] range at 0xd6a9f000, size 0x1000 fully unreadable
[0920/112605:ERROR:process_info.cc(608)] range at 0xd6bdf000, size 0x1000 fully unreadable
[0920/112605:ERROR:process_info.cc(608)] range at 0xd6d1e000, size 0x2000 fully unreadable
[0920/112605:ERROR:process_info.cc(608)] range at 0xd6e5e000, size 0x2000 fully unreadable
[0920/112605:ERROR:process_info.cc(608)] range at 0xd783f000, size 0x1000 fully unreadable
[0920/112605:ERROR:process_info.cc(608)] range at 0xd797e000, size 0x2000 fully unreadable
[0920/112605:ERROR:process_info.cc(608)] range at 0xd7abf000, size 0x1000 fully unreadable
[0920/112605:ERROR:process_info.cc(608)] range at 0xd7dff000, size 0x1000 fully unreadable
[0920/112605:ERROR:process_info.cc(608)] range at 0xd7e5f000, size 0xf84 fully unreadable
[0920/112605:ERROR:process_info.cc(608)] range at 0xd813e000, size 0x2000 fully unreadable
[0920/112605:ERROR:process_info.cc(608)] range at 0xd7e62000, size 0xf84 fully unreadable
[0920/112605:ERROR:process_info.cc(608)] range at 0xd827f000, size 0x1000 fully unreadable
[0920/112605:ERROR:process_info.cc(608)] range at 0xd7e65000, size 0xf84 fully unreadable
[0920/112605:ERROR:process_info.cc(608)] range at 0xd85bf000, size 0x1000 fully unreadable
[0920/112605:ERROR:process_info.cc(608)] range at 0xd7e68000, size 0xf84 fully unreadable
[0920/112605:ERROR:process_info.cc(608)] range at 0xd8d5e000, size 0x2000 fully unreadable
[0920/112605:ERROR:process_info.cc(608)] range at 0xd7e6b000, size 0xf84 fully unreadable
[0920/112605:ERROR:process_info.cc(608)] range at 0xd8e9e000, size 0x2000 fully unreadable
[0920/112605:ERROR:process_info.cc(608)] range at 0xd7e6e000, size 0xf84 fully unreadable
[0920/112605:ERROR:process_info.cc(608)] range at 0xd8fde000, size 0x2000 fully unreadable
[0920/112605:ERROR:process_info.cc(608)] range at 0xd7e71000, size 0xf84 fully unreadable
[0920/112605:ERROR:process_info.cc(608)] range at 0xd911f000, size 0x1000 fully unreadable
[0920/112605:ERROR:process_info.cc(608)] range at 0xd7e74000, size 0xf84 fully unreadable
[0920/112605:ERROR:process_info.cc(608)] range at 0xd925e000, size 0x2000 fully unreadable
[0920/112605:ERROR:process_info.cc(608)] range at 0xd7e77000, size 0xf84 fully unreadable
[0920/112605:ERROR:process_info.cc(608)] range at 0xd939f000, size 0x1000 fully unreadable
[0920/112605:ERROR:process_info.cc(608)] range at 0xd7e7a000, size 0xf84 fully unreadable
[0920/112605:ERROR:process_info.cc(608)] range at 0xd94df000, size 0x1000 fully unreadable
[0920/112605:ERROR:process_info.cc(608)] range at 0xd7e7d000, size 0xf84 fully unreadable
[0920/112605:ERROR:process_info.cc(608)] range at 0xd9cde000, size 0x2000 fully unreadable
[0920/112605:ERROR:process_info.cc(608)] range at 0xd7e80000, size 0xf84 fully unreadable
[0920/112605:ERROR:process_info.cc(608)] range at 0xd9e1e000, size 0x2000 fully unreadable
[0920/112605:ERROR:process_info.cc(608)] range at 0xd7e83000, size 0xf84 fully unreadable
[0920/112605:ERROR:process_info.cc(608)] range at 0xd9f5f000, size 0x1000 fully unreadable
[0920/112605:ERROR:process_info.cc(608)] range at 0xd7e86000, size 0xf84 fully unreadable
[0920/112605:ERROR:process_info.cc(608)] range at 0xda09e000, size 0x2000 fully unreadable
[0920/112605:ERROR:process_info.cc(608)] range at 0xd7e89000, size 0xf84 fully unreadable
[0920/112605:ERROR:process_info.cc(608)] range at 0xda1de000, size 0x2000 fully unreadable
[0920/112605:ERROR:process_info.cc(608)] range at 0xd7e8c000, size 0xf84 fully unreadable
[0920/112605:ERROR:process_info.cc(608)] range at 0xda31e000, size 0x2000 fully unreadable
[0920/112605:ERROR:process_info.cc(608)] range at 0xd7e8f000, size 0xf84 fully unreadable
[0920/112605:ERROR:process_info.cc(608)] range at 0xda45f000, size 0x1000 fully unreadable
[0920/112605:ERROR:process_info.cc(608)] range at 0xd7e92000, size 0xf84 fully unreadable
[0920/112605:ERROR:process_info.cc(608)] range at 0xdac5e000, size 0x2000 fully unreadable
[0920/112605:ERROR:process_info.cc(608)] range at 0xd7e95000, size 0xf84 fully unreadable
[0920/112605:ERROR:process_info.cc(608)] range at 0xdaf9e000, size 0x2000 fully unreadable
[0920/112605:ERROR:process_info.cc(608)] range at 0xd7e98000, size 0xf84 fully unreadable
[0920/112605:ERROR:process_info.cc(608)] range at 0xdb0df000, size 0x1000 fully unreadable
[0920/112605:ERROR:process_info.cc(608)] range at 0xd7e9b000, size 0xf84 fully unreadable
[0920/112605:ERROR:process_info.cc(608)] range at 0xdb41f000, size 0x1000 fully unreadable
[0920/112605:ERROR:process_info.cc(608)] range at 0xd7e9e000, size 0xf84 fully unreadable
[0920/112605:ERROR:process_info.cc(608)] range at 0xdb55e000, size 0x2000 fully unreadable
[0920/112605:ERROR:process_info.cc(608)] range at 0xd7ea1000, size 0xf84 fully unreadable
[0920/112605:ERROR:process_info.cc(608)] range at 0xdb69f000, size 0x1000 fully unreadable
[0920/112605:ERROR:process_info.cc(608)] range at 0xd7ea4000, size 0xf84 fully unreadable
[0920/112605:ERROR:process_info.cc(608)] range at 0xdb7de000, size 0x2000 fully unreadable
[0920/112605:ERROR:process_info.cc(608)] range at 0xd7ea7000, size 0xf84 fully unreadable
[0920/112605:ERROR:process_info.cc(608)] range at 0xdbfbf000, size 0x1000 fully unreadable
[0920/112605:ERROR:process_info.cc(608)] range at 0xd7eaa000, size 0xf84 fully unreadable
[0920/112605:ERROR:process_info.cc(608)] range at 0xdc0fe000, size 0x2000 fully unreadable
[0920/112605:ERROR:process_info.cc(608)] range at 0xd7ead000, size 0xf84 fully unreadable
[0920/112605:ERROR:process_info.cc(608)] range at 0xdc23e000, size 0x2000 fully unreadable
[0920/112605:ERROR:process_info.cc(608)] range at 0xd7eb0000, size 0xf84 fully unreadable
[0920/112605:ERROR:process_info.cc(608)] range at 0xdc37f000, size 0x1000 fully unreadable
[0920/112605:ERROR:process_info.cc(608)] range at 0xd7eb3000, size 0xf84 fully unreadable
[0920/112605:ERROR:process_info.cc(608)] range at 0xdc4bf000, size 0x1000 fully unreadable
[0920/112605:ERROR:process_info.cc(608)] range at 0xd7eb6000, size 0xf84 fully unreadable
[0920/112605:ERROR:process_info.cc(608)] range at 0xdc5fe000, size 0x2000 fully unreadable
[0920/112605:ERROR:process_info.cc(608)] range at 0xd7eb9000, size 0xf84 fully unreadable
[0920/112605:ERROR:process_info.cc(608)] range at 0xdc93e000, size 0x2000 fully unreadable
[0920/112605:ERROR:process_info.cc(608)] range at 0xd7ebc000, size 0xf84 fully unreadable
[0920/112605:ERROR:process_info.cc(608)] range at 0xdd0fe000, size 0x2000 fully unreadable
[0920/112605:ERROR:process_info.cc(608)] range at 0xd7ebf000, size 0xf84 fully unreadable
[0920/112605:ERROR:process_info.cc(608)] range at 0xdd23e000, size 0x2000 fully unreadable
[0920/112605:ERROR:process_info.cc(608)] range at 0xd7ec2000, size 0xf84 fully unreadable
[0920/112605:ERROR:process_info.cc(608)] range at 0xdd37e000, size 0x2000 fully unreadable
[0920/112605:ERROR:process_info.cc(608)] range at 0xd7ec5000, size 0xf84 fully unreadable
[0920/112605:ERROR:process_info.cc(608)] range at 0xdd4be000, size 0x2000 fully unreadable
[0920/112605:ERROR:process_info.cc(608)] range at 0xd7ec8000, size 0xf84 fully unreadable
[0920/112605:ERROR:process_info.cc(608)] range at 0xdd5fe000, size 0x2000 fully unreadable
[0920/112605:ERROR:process_info.cc(608)] range at 0xd7ecb000, size 0xf84 fully unreadable
[0920/112605:ERROR:process_info.cc(608)] range at 0xdd93e000, size 0x2000 fully unreadable
[0920/112605:ERROR:process_info.cc(608)] range at 0xd7ece000, size 0xf84 fully unreadable
[0920/112605:ERROR:process_info.cc(608)] range at 0xdda7f000, size 0x1000 fully unreadable
[0920/112605:ERROR:process_info.cc(608)] range at 0xd7ed1000, size 0xf84 fully unreadable
[0920/112605:ERROR:process_info.cc(608)] range at 0xde25e000, size 0x2000 fully unreadable
[0920/112605:ERROR:process_info.cc(608)] range at 0xd7ed4000, size 0xf84 fully unreadable
[0920/112605:ERROR:process_info.cc(608)] range at 0xdf36f000, size 0x1000 fully unreadable
[0920/112605:ERROR:process_info.cc(608)] range at 0xd7ed7000, size 0xf84 fully unreadable
[0920/112605:ERROR:process_info.cc(608)] range at 0xdf6ae000, size 0x2000 fully unreadable
[0920/112605:ERROR:process_info.cc(608)] range at 0xd7eda000, size 0xf84 fully unreadable
[0920/112605:ERROR:process_info.cc(608)] range at 0xdf7ee000, size 0x2000 fully unreadable
[0920/112605:ERROR:process_info.cc(608)] range at 0xd7edd000, size 0xf84 fully unreadable
[0920/112605:ERROR:process_info.cc(608)] range at 0xdfb2e000, size 0x2000 fully unreadable
[0920/112605:ERROR:process_info.cc(608)] range at 0xd7ee0000, size 0xf84 fully unreadable
[0920/112605:ERROR:process_info.cc(608)] range at 0xdfc6e000, size 0x2000 fully unreadable
[0920/112605:ERROR:process_info.cc(608)] range at 0xd7ee3000, size 0xf84 fully unreadable
[0920/112605:ERROR:process_info.cc(608)] range at 0xdffae000, size 0x2000 fully unreadable
[0920/112605:ERROR:process_info.cc(608)] range at 0xd7ee6000, size 0xf84 fully unreadable
[0920/112605:ERROR:process_info.cc(608)] range at 0xe078f000, size 0x1000 fully unreadable
[0920/112605:ERROR:process_info.cc(608)] range at 0xd7ee9000, size 0xf84 fully unreadable
[0920/112605:ERROR:process_info.cc(608)] range at 0xe08ce000, size 0x2000 fully unreadable
[0920/112605:ERROR:process_info.cc(608)] range at 0xd7eec000, size 0xf84 fully unreadable
[0920/112605:ERROR:process_info.cc(608)] range at 0xe0a0f000, size 0x1000 fully unreadable
[0920/112605:ERROR:process_info.cc(608)] range at 0xd7eef000, size 0xf84 fully unreadable
[0920/112605:ERROR:process_info.cc(608)] range at 0xe0b4f000, size 0x1000 fully unreadable
[0920/112605:ERROR:process_info.cc(608)] range at 0xd7ef2000, size 0xf84 fully unreadable
[0920/112605:ERROR:process_info.cc(608)] range at 0xe0c8e000, size 0x2000 fully unreadable
[0920/112605:ERROR:process_info.cc(608)] range at 0xd7ef5000, size 0xf84 fully unreadable
[0920/112605:ERROR:process_info.cc(608)] range at 0xe0dce000, size 0x2000 fully unreadable
[0920/112605:ERROR:process_info.cc(608)] range at 0xd7ef8000, size 0xf84 fully unreadable
[0920/112605:ERROR:process_info.cc(608)] range at 0xe0f0e000, size 0x2000 fully unreadable
[0920/112605:ERROR:process_info.cc(608)] range at 0xd7efb000, size 0xf84 fully unreadable
[0920/112605:ERROR:process_info.cc(608)] range at 0xe170e000, size 0x2000 fully unreadable
[0920/112605:ERROR:process_info.cc(608)] range at 0xd7efe000, size 0xf84 fully unreadable
[0920/112605:ERROR:process_info.cc(608)] range at 0xe184f000, size 0x1000 fully unreadable
[0920/112605:ERROR:process_info.cc(608)] range at 0xd7f01000, size 0xf84 fully unreadable
[0920/112605:ERROR:process_info.cc(608)] range at 0xe198e000, size 0x2000 fully unreadable
[0920/112605:ERROR:process_info.cc(608)] range at 0xd7f04000, size 0xf84 fully unreadable
[0920/112605:ERROR:process_info.cc(608)] range at 0xe1ace000, size 0x2000 fully unreadable
[0920/112605:ERROR:process_info.cc(608)] range at 0xd7f07000, size 0xf84 fully unreadable
[0920/112605:ERROR:process_info.cc(608)] range at 0xe2bde000, size 0x2000 fully unreadable
[0920/112605:ERROR:process_info.cc(608)] range at 0xd7f0a000, size 0xf84 fully unreadable
[0920/112605:ERROR:process_info.cc(608)] range at 0xe2d1e000, size 0x2000 fully unreadable
[0920/112605:ERROR:process_info.cc(608)] range at 0xd7f0d000, size 0xf84 fully unreadable
[0920/112605:ERROR:process_info.cc(608)] range at 0xe34fe000, size 0x2000 fully unreadable
[0920/112605:ERROR:process_info.cc(608)] range at 0xd7f10000, size 0xf84 fully unreadable
[0920/112605:ERROR:process_info.cc(608)] range at 0xe363e000, size 0x2000 fully unreadable
[0920/112605:ERROR:process_info.cc(608)] range at 0xd7f13000, size 0xf84 fully unreadable
[0920/112605:ERROR:process_info.cc(608)] range at 0xe397e000, size 0x2000 fully unreadable
[0920/112605:ERROR:process_info.cc(608)] range at 0xd7f16000, size 0xf84 fully unreadable
[0920/112605:ERROR:process_info.cc(608)] range at 0xe3abf000, size 0x1000 fully unreadable
[0920/112605:ERROR:process_info.cc(608)] range at 0xd7f19000, size 0xf84 fully unreadable
[0920/112605:ERROR:process_info.cc(608)] range at 0xe3bff000, size 0x1000 fully unreadable
[0920/112605:ERROR:process_info.cc(608)] range at 0xd7f1c000, size 0xf84 fully unreadable
[0920/112605:ERROR:process_info.cc(608)] range at 0xe3d3e000, size 0x2000 fully unreadable
[0920/112605:ERROR:process_info.cc(608)] range at 0xd7f1f000, size 0xf84 fully unreadable
[0920/112605:ERROR:process_info.cc(608)] range at 0xe407e000, size 0x2000 fully unreadable
[0920/112605:ERROR:process_info.cc(608)] range at 0xd7f22000, size 0xf84 fully unreadable
[0920/112605:ERROR:process_info.cc(608)] range at 0xe485f000, size 0x1000 fully unreadable
[0920/112605:ERROR:process_info.cc(608)] range at 0xd7f25000, size 0xf84 fully unreadable
[0920/112605:ERROR:process_info.cc(608)] range at 0xe499e000, size 0x2000 fully unreadable
[0920/112605:ERROR:process_info.cc(608)] range at 0xd7f28000, size 0xf84 fully unreadable
[0920/112605:ERROR:process_info.cc(608)] range at 0xe4adf000, size 0x1000 fully unreadable
[0920/112605:ERROR:process_info.cc(608)] range at 0xd7f2b000, size 0xf84 fully unreadable
[0920/112605:ERROR:process_info.cc(608)] range at 0xe4c1e000, size 0x2000 fully unreadable
[0920/112605:ERROR:process_info.cc(608)] range at 0xd7f2e000, size 0xf84 fully unreadable
[0920/112605:ERROR:process_info.cc(608)] range at 0xe4d5e000, size 0x2000 fully unreadable
[0920/112605:ERROR:process_info.cc(608)] range at 0xd7f31000, size 0xf84 fully unreadable
[0920/112605:ERROR:process_info.cc(608)] range at 0xe4e9e000, size 0x2000 fully unreadable
[0920/112605:ERROR:process_info.cc(608)] range at 0xd7f34000, size 0xf84 fully unreadable
[0920/112605:ERROR:process_info.cc(608)] range at 0xe4fde000, size 0x2000 fully unreadable
[0920/112605:ERROR:process_info.cc(608)] range at 0xd7f37000, size 0xf84 fully unreadable
[0920/112605:ERROR:process_info.cc(608)] range at 0xe57fe000, size 0x2000 fully unreadable
[0920/112605:ERROR:process_info.cc(608)] range at 0xd7f3a000, size 0xf84 fully unreadable
[0920/112605:ERROR:process_info.cc(608)] range at 0xe593e000, size 0x2000 fully unreadable
[0920/112605:ERROR:process_info.cc(608)] range at 0xd7f3d000, size 0xf84 fully unreadable
[0920/112605:ERROR:process_info.cc(608)] range at 0xe5a7e000, size 0x2000 fully unreadable
[0920/112605:ERROR:process_info.cc(608)] range at 0xd7f40000, size 0xf84 fully unreadable
[0920/112605:ERROR:process_info.cc(608)] range at 0xe5bbf000, size 0x1000 fully unreadable
[0920/112605:ERROR:process_info.cc(608)] range at 0xd7f43000, size 0xf84 fully unreadable
[0920/112605:ERROR:process_info.cc(608)] range at 0xe5efe000, size 0x2000 fully unreadable
[0920/112605:ERROR:process_info.cc(608)] range at 0xd7f46000, size 0xf84 fully unreadable
[0920/112605:ERROR:process_info.cc(608)] range at 0xe603f000, size 0x1000 fully unreadable
[0920/112605:ERROR:process_info.cc(608)] range at 0xd7f49000, size 0xf84 fully unreadable
[0920/112605:ERROR:process_info.cc(608)] range at 0xe617e000, size 0x2000 fully unreadable
[0920/112605:ERROR:process_info.cc(608)] range at 0xd7f4c000, size 0xf84 fully unreadable
[0920/112605:ERROR:process_info.cc(608)] range at 0xe62bf000, size 0x1000 fully unreadable
[0920/112605:ERROR:process_info.cc(608)] range at 0xd7f4f000, size 0xf84 fully unreadable
[0920/112605:ERROR:process_info.cc(608)] range at 0xe6b3f000, size 0x1000 fully unreadable
[0920/112605:ERROR:process_info.cc(608)] range at 0xd7f52000, size 0xf84 fully unreadable
[0920/112605:ERROR:process_info.cc(608)] range at 0xe6e7e000, size 0x2000 fully unreadable
[0920/112605:ERROR:process_info.cc(608)] range at 0xd7f55000, size 0xf84 fully unreadable
[0920/112605:ERROR:process_info.cc(608)] range at 0xe6fbe000, size 0x2000 fully unreadable
[0920/112605:ERROR:process_info.cc(608)] range at 0xd7f58000, size 0xf84 fully unreadable
[0920/112605:ERROR:process_info.cc(608)] range at 0xe70fe000, size 0x2000 fully unreadable
[0920/112605:ERROR:process_info.cc(608)] range at 0xd7f5b000, size 0xf84 fully unreadable
[0920/112605:ERROR:process_info.cc(608)] range at 0xe723f000, size 0x1000 fully unreadable
[0920/112605:ERROR:process_info.cc(608)] range at 0xd7f5e000, size 0xf84 fully unreadable
[0920/112605:ERROR:process_info.cc(608)] range at 0xe737e000, size 0x2000 fully unreadable
[0920/112605:ERROR:process_info.cc(608)] range at 0xd7f61000, size 0xf84 fully unreadable
[0920/112605:ERROR:process_info.cc(608)] range at 0xe7d7e000, size 0x2000 fully unreadable
[0920/112605:ERROR:process_info.cc(608)] range at 0xd7f64000, size 0xf84 fully unreadable
[0920/112605:ERROR:process_info.cc(608)] range at 0xe7ebe000, size 0x2000 fully unreadable
[0920/112605:ERROR:process_info.cc(608)] range at 0xd7f67000, size 0xf84 fully unreadable
[0920/112605:ERROR:process_info.cc(608)] range at 0xe7ffe000, size 0x2000 fully unreadable
[0920/112605:ERROR:process_info.cc(608)] range at 0xd7f6a000, size 0xf84 fully unreadable
[0920/112605:ERROR:process_info.cc(608)] range at 0xe813e000, size 0x2000 fully unreadable
[0920/112605:ERROR:process_info.cc(608)] range at 0xd7f6d000, size 0xf84 fully unreadable
[0920/112605:ERROR:process_info.cc(608)] range at 0xe827e000, size 0x2000 fully unreadable
[0920/112605:ERROR:process_info.cc(608)] range at 0xd7f70000, size 0xf84 fully unreadable
[0920/112605:ERROR:process_info.cc(608)] range at 0xe83be000, size 0x2000 fully unreadable
[0920/112605:ERROR:process_info.cc(608)] range at 0xd7f73000, size 0xf84 fully unreadable
[0920/112605:ERROR:process_info.cc(608)] range at 0xe84ff000, size 0x1000 fully unreadable
[0920/112605:ERROR:process_info.cc(608)] range at 0xd7f76000, size 0xf84 fully unreadable
[0920/112605:ERROR:process_info.cc(608)] range at 0xe863e000, size 0x2000 fully unreadable
[0920/112605:ERROR:process_info.cc(608)] range at 0xd7f79000, size 0xf84 fully unreadable
[0920/112605:ERROR:process_info.cc(608)] range at 0xe8ede000, size 0x2000 fully unreadable
[0920/112605:ERROR:process_info.cc(608)] range at 0xd7f7c000, size 0xf84 fully unreadable
[0920/112605:ERROR:process_info.cc(608)] range at 0xe901e000, size 0x2000 fully unreadable
[0920/112605:ERROR:process_info.cc(608)] range at 0xd7f7f000, size 0xf84 fully unreadable
[0920/112605:ERROR:process_info.cc(608)] range at 0xe915f000, size 0x1000 fully unreadable
[0920/112605:ERROR:process_info.cc(608)] range at 0xd7f82000, size 0xf84 fully unreadable
[0920/112605:ERROR:process_info.cc(608)] range at 0xe929f000, size 0x1000 fully unreadable
[0920/112605:ERROR:process_info.cc(608)] range at 0xd7f85000, size 0xf84 fully unreadable
[0920/112605:ERROR:process_info.cc(608)] range at 0xe93de000, size 0x2000 fully unreadable
[0920/112605:ERROR:process_info.cc(608)] range at 0xd7f88000, size 0xf84 fully unreadable
[0920/112605:ERROR:process_info.cc(608)] range at 0xe951e000, size 0x2000 fully unreadable
[0920/112605:ERROR:process_info.cc(608)] range at 0xd7f8b000, size 0xf84 fully unreadable
[0920/112605:ERROR:process_info.cc(608)] range at 0xe965e000, size 0x2000 fully unreadable
[0920/112605:ERROR:process_info.cc(608)] range at 0xd7f8e000, size 0xf84 fully unreadable
[0920/112605:ERROR:process_info.cc(608)] range at 0xe999e000, size 0x2000 fully unreadable
[0920/112605:ERROR:process_info.cc(608)] range at 0xd7f91000, size 0xf84 fully unreadable
[0920/112605:ERROR:process_info.cc(608)] range at 0xea23e000, size 0x2000 fully unreadable
[0920/112605:ERROR:process_info.cc(608)] range at 0xd7f94000, size 0xf84 fully unreadable
[0920/112605:ERROR:process_info.cc(608)] range at 0xea37f000, size 0x1000 fully unreadable
[0920/112605:ERROR:process_info.cc(608)] range at 0xd7f97000, size 0xf84 fully unreadable
[0920/112605:ERROR:process_info.cc(608)] range at 0xea4be000, size 0x2000 fully unreadable
[0920/112605:ERROR:process_info.cc(608)] range at 0xd7f9a000, size 0xf84 fully unreadable
[0920/112605:ERROR:process_info.cc(608)] range at 0xea5fe000, size 0x2000 fully unreadable
[0920/112605:ERROR:process_info.cc(608)] range at 0xd7f9d000, size 0xf84 fully unreadable
[0920/112605:ERROR:process_info.cc(608)] range at 0xea73f000, size 0x1000 fully unreadable
[0920/112605:ERROR:process_info.cc(608)] range at 0xd7fa0000, size 0xf84 fully unreadable
[0920/112605:ERROR:process_info.cc(608)] range at 0xea87f000, size 0x1000 fully unreadable
[0920/112605:ERROR:process_info.cc(608)] range at 0xd7fa3000, size 0xf84 fully unreadable
[0920/112605:ERROR:process_info.cc(608)] range at 0xea9be000, size 0x2000 fully unreadable
[0920/112605:ERROR:process_info.cc(608)] range at 0xd7fa6000, size 0xf84 fully unreadable
[0920/112605:ERROR:process_info.cc(608)] range at 0xeaafe000, size 0x2000 fully unreadable
[0920/112605:ERROR:process_info.cc(608)] range at 0xd7fa9000, size 0xf84 fully unreadable
[0920/112605:ERROR:process_info.cc(608)] range at 0xeb71e000, size 0x2000 fully unreadable
[0920/112605:ERROR:process_info.cc(608)] range at 0xd7fac000, size 0xf84 fully unreadable
[0920/112605:ERROR:process_info.cc(608)] range at 0xeb85e000, size 0x2000 fully unreadable
[0920/112605:ERROR:process_info.cc(608)] range at 0xd7faf000, size 0xf84 fully unreadable
[0920/112605:ERROR:process_info.cc(608)] range at 0xeb99e000, size 0x2000 fully unreadable
[0920/112605:ERROR:process_info.cc(608)] range at 0xd7fb2000, size 0xf84 fully unreadable
[0920/112605:ERROR:process_info.cc(608)] range at 0xebade000, size 0x2000 fully unreadable
[0920/112605:ERROR:process_info.cc(608)] range at 0xd7fb5000, size 0xf84 fully unreadable
[0920/112605:ERROR:process_info.cc(608)] range at 0xec9fe000, size 0x2000 fully unreadable
[0920/112605:ERROR:process_info.cc(608)] range at 0xd7fb8000, size 0xf84 fully unreadable
[0920/112605:ERROR:process_info.cc(608)] range at 0xecb3e000, size 0x2000 fully unreadable
[0920/112605:ERROR:process_info.cc(608)] range at 0xd7fbb000, size 0xf84 fully unreadable
[0920/112605:ERROR:process_info.cc(608)] range at 0xecc7e000, size 0x2000 fully unreadable
[0920/112605:ERROR:process_info.cc(608)] range at 0xd7fbe000, size 0xf84 fully unreadable
[0920/112605:ERROR:process_info.cc(608)] range at 0xecdbe000, size 0x2000 fully unreadable
[0920/112605:ERROR:process_info.cc(608)] range at 0xd7fc1000, size 0xf84 fully unreadable
[0920/112605:ERROR:process_info.cc(608)] range at 0xed1be000, size 0x2000 fully unreadable
[0920/112605:ERROR:process_info.cc(608)] range at 0xd7fc4000, size 0xf84 fully unreadable
[0920/112605:ERROR:process_info.cc(608)] range at 0xed2ff000, size 0x1000 fully unreadable
[0920/112605:ERROR:process_info.cc(608)] range at 0xd7fc7000, size 0xf84 fully unreadable
[0920/112605:ERROR:process_info.cc(608)] range at 0xedb9e000, size 0x2000 fully unreadable
[0920/112605:ERROR:process_info.cc(608)] range at 0xd7fca000, size 0xf84 fully unreadable
[0920/112605:ERROR:process_info.cc(608)] range at 0xedcde000, size 0x2000 fully unreadable
[0920/112605:ERROR:process_info.cc(608)] range at 0xd7fcd000, size 0xf84 fully unreadable
[0920/112605:ERROR:process_info.cc(608)] range at 0xee01e000, size 0x2000 fully unreadable
[0920/112605:ERROR:process_info.cc(608)] range at 0xd7fd0000, size 0xf84 fully unreadable
[0920/112605:ERROR:process_info.cc(608)] range at 0xee15f000, size 0x1000 fully unreadable
[0920/112605:ERROR:process_info.cc(608)] range at 0xd7fd3000, size 0xf84 fully unreadable
[0920/112605:ERROR:process_info.cc(608)] range at 0xee69e000, size 0x2000 fully unreadable
[0920/112605:ERROR:process_info.cc(608)] range at 0xd7fd6000, size 0xf84 fully unreadable
[0920/112605:ERROR:process_info.cc(608)] range at 0xee7de000, size 0x2000 fully unreadable
[0920/112605:ERROR:process_info.cc(608)] range at 0xd7fd9000, size 0xf84 fully unreadable
[0920/112605:ERROR:process_info.cc(608)] range at 0xeeb9e000, size 0x2000 fully unreadable
[0920/112605:ERROR:process_info.cc(608)] range at 0xd7fdc000, size 0xf84 fully unreadable
[0920/112605:ERROR:process_info.cc(608)] range at 0xeecdf000, size 0x1000 fully unreadable
[0920/112605:ERROR:process_info.cc(608)] range at 0xd7fdf000, size 0xf84 fully unreadable
[0920/112605:ERROR:process_info.cc(608)] range at 0xef55e000, size 0x2000 fully unreadable
[0920/112605:ERROR:process_info.cc(608)] range at 0xd7fe2000, size 0xf84 fully unreadable
[0920/112605:ERROR:process_info.cc(608)] range at 0xef69e000, size 0x2000 fully unreadable
[0920/112605:ERROR:process_info.cc(608)] range at 0xd7fe5000, size 0xf84 fully unreadable
[0920/112605:ERROR:process_info.cc(608)] range at 0xef7de000, size 0x2000 fully unreadable
[0920/112605:ERROR:process_info.cc(608)] range at 0xd7fe8000, size 0xf84 fully unreadable
[0920/112605:ERROR:process_info.cc(608)] range at 0xef91e000, size 0x2000 fully unreadable
[0920/112605:ERROR:process_info.cc(608)] range at 0xd7feb000, size 0xf84 fully unreadable
[0920/112605:ERROR:process_info.cc(608)] range at 0xefd1e000, size 0x2000 fully unreadable
[0920/112605:ERROR:process_info.cc(608)] range at 0xd7fee000, size 0xf84 fully unreadable
[0920/112605:ERROR:process_info.cc(608)] range at 0xefe5e000, size 0x2000 fully unreadable
[0920/112605:ERROR:process_info.cc(608)] range at 0xd7ff1000, size 0xf84 fully unreadable
[0920/112605:ERROR:process_info.cc(608)] range at 0xeff9e000, size 0x2000 fully unreadable
[0920/112605:ERROR:process_info.cc(608)] range at 0xd7ff4000, size 0xf84 fully unreadable
[0920/112605:ERROR:process_info.cc(608)] range at 0xf00de000, size 0x2000 fully unreadable
[0920/112605:ERROR:process_info.cc(608)] range at 0xd7ff7000, size 0xf84 fully unreadable
[0920/112605:ERROR:process_info.cc(608)] range at 0xf0b9e000, size 0x2000 fully unreadable
[0920/112605:ERROR:process_info.cc(608)] range at 0xd7ffa000, size 0xf84 fully unreadable
[0920/112605:ERROR:process_info.cc(608)] range at 0xf0cdf000, size 0x1000 fully unreadable
[0920/112605:ERROR:process_info.cc(608)] range at 0xd7ffd000, size 0xf84 fully unreadable
[0920/112605:ERROR:process_info.cc(608)] range at 0xf0e1e000, size 0x2000 fully unreadable
[0920/112605:ERROR:process_info.cc(608)] range at 0xd7e02000, size 0xf84 fully unreadable
[0920/112605:ERROR:process_info.cc(608)] range at 0xf0f5f000, size 0x1000 fully unreadable
[0920/112605:ERROR:process_info.cc(608)] range at 0xd7e05000, size 0xf84 fully unreadable
[0920/112605:ERROR:process_info.cc(608)] range at 0xf133e000, size 0x2000 fully unreadable
[0920/112605:ERROR:process_info.cc(608)] range at 0xd7e08000, size 0xf84 fully unreadable
[0920/112605:ERROR:process_info.cc(608)] range at 0xf147f000, size 0x1000 fully unreadable
[0920/112605:ERROR:process_info.cc(608)] range at 0xd7e0b000, size 0xf84 fully unreadable
[0920/112605:ERROR:process_info.cc(608)] range at 0x8f66e000, size 0x2000 fully unreadable
[0920/112605:ERROR:process_info.cc(608)] range at 0xd7e17000, size 0xf84 fully unreadable
[0920/112605:ERROR:process_info.cc(608)] range at 0xc298e000, size 0x2000 fully unreadable
[0920/112605:ERROR:process_info.cc(608)] range at 0xd7e1a000, size 0xf84 fully unreadable
[0920/112605:ERROR:process_info.cc(608)] range at 0xc35ef000, size 0x1000 fully unreadable
[0920/112605:ERROR:process_info.cc(608)] range at 0xd7e1d000, size 0xf84 fully unreadable
[0920/112605:ERROR:process_info.cc(608)] range at 0xc401f000, size 0x1000 fully unreadable
[0920/112605:ERROR:process_info.cc(608)] range at 0xd7e20000, size 0xf84 fully unreadable
[0920/112605:ERROR:process_info.cc(608)] range at 0xc4b1f000, size 0x1000 fully unreadable
[0920/112605:ERROR:process_info.cc(608)] range at 0xd7e23000, size 0xf84 fully unreadable
[0920/112605:ERROR:process_info.cc(608)] range at 0xc4c1f000, size 0x1000 fully unreadable
[0920/112605:ERROR:process_info.cc(608)] range at 0xd7e26000, size 0xf84 fully unreadable
[0920/112605:ERROR:process_info.cc(608)] range at 0xc4d1e000, size 0x2000 fully unreadable
[0920/112605:ERROR:process_info.cc(608)] range at 0xd7e29000, size 0xf84 fully unreadable
[0920/112605:ERROR:process_info.cc(608)] range at 0xc4e5f000, size 0x1000 fully unreadable
[0920/112605:ERROR:process_info.cc(608)] range at 0xd7e2c000, size 0xf84 fully unreadable
[0920/112605:ERROR:process_info.cc(608)] range at 0xc4f9e000, size 0x2000 fully unreadable
[0920/112605:ERROR:process_info.cc(608)] range at 0xd7e2f000, size 0xf84 fully unreadable
[0920/112605:ERROR:process_info.cc(608)] range at 0xc50df000, size 0x1000 fully unreadable
[0920/112605:ERROR:process_info.cc(608)] range at 0xd7e32000, size 0xf84 fully unreadable
[0920/112605:ERROR:process_info.cc(608)] range at 0xc521e000, size 0x2000 fully unreadable
[0920/112605:ERROR:process_info.cc(608)] range at 0xd7e35000, size 0xf84 fully unreadable
[0920/112605:ERROR:process_info.cc(608)] range at 0xf446f000, size 0x1000 fully unreadable
[0920/112605:ERROR:process_info.cc(608)] range at 0xd7e38000, size 0xf84 fully unreadable
[0920/112605:ERROR:process_info.cc(608)] range at 0xf456e000, size 0x2000 fully unreadable
[0920/112605:ERROR:process_info.cc(608)] range at 0xd7e3b000, size 0xf84 fully unreadable
[0920/112605:ERROR:process_info.cc(608)] range at 0xf46ae000, size 0x2000 fully unreadable
[0920/112605:ERROR:process_info.cc(608)] range at 0xd7e3e000, size 0xf84 fully unreadable
[0920/112605:ERROR:process_info.cc(608)] range at 0xf4a8f000, size 0x1000 fully unreadable
[0920/112605:ERROR:process_info.cc(608)] range at 0xd7e41000, size 0xf84 fully unreadable
[0920/112605:ERROR:process_info.cc(608)] range at 0xf4bce000, size 0x2000 fully unreadable
[0920/112605:ERROR:process_info.cc(608)] range at 0xd7e44000, size 0xf84 fully unreadable
[0920/112605:ERROR:process_info.cc(608)] range at 0xf4d0e000, size 0x2000 fully unreadable
[0920/112605:ERROR:process_info.cc(608)] range at 0xd7e47000, size 0xf84 fully unreadable
[0920/112605:ERROR:process_info.cc(608)] range at 0xf4e4f000, size 0x1000 fully unreadable
[0920/112605:ERROR:process_info.cc(608)] range at 0xd7e4a000, size 0xf84 fully unreadable
[0920/112605:ERROR:process_info.cc(608)] range at 0xfb9fe000, size 0x2000 fully unreadable
[0920/112605:ERROR:process_info.cc(608)] range at 0xd7e4d000, size 0xf84 fully unreadable
[0920/112605:ERROR:process_info.cc(608)] range at 0xfbb3e000, size 0x2000 fully unreadable
[0920/112605:ERROR:process_info.cc(608)] range at 0xd7e50000, size 0xf84 fully unreadable
[0920/112605:ERROR:process_info.cc(608)] range at 0xfbc7e000, size 0x2000 fully unreadable
[0920/112605:ERROR:process_info.cc(608)] range at 0xd7e53000, size 0xf84 fully unreadable
[0920/112605:ERROR:process_info.cc(608)] range at 0xfbdbe000, size 0x2000 fully unreadable
[0920/112605:ERROR:process_info.cc(608)] range at 0xd7e56000, size 0xf84 fully unreadable
[0920/112605:ERROR:process_info.cc(608)] range at 0xfc39f000, size 0x1000 fully unreadable
[0920/112605:ERROR:process_info.cc(608)] range at 0xd7e59000, size 0xf84 fully unreadable
[0920/112605:ERROR:process_info.cc(608)] range at 0xfc6de000, size 0x2000 fully unreadable
[0920/112605:ERROR:process_info.cc(608)] range at 0xd7e5c000, size 0xf84 fully unreadable
[0920/112605:ERROR:process_info.cc(608)] range at 0xfcf9e000, size 0x2000 fully unreadable
[0920/112605:ERROR:process_info.cc(608)] range at 0xd7e0e000, size 0xf84 fully unreadable
[0920/112605:ERROR:process_info.cc(608)] range at 0xfd0de000, size 0x2000 fully unreadable
[0920/112605:ERROR:process_info.cc(608)] range at 0xd7e11000, size 0xf84 fully unreadable
[0920/112605:ERROR:process_info.cc(608)] range at 0xfd21e000, size 0x2000 fully unreadable
[0920/112605:ERROR:process_info.cc(608)] range at 0xd7e14000, size 0xf84 fully unreadable
[0920/112605:ERROR:process_info.cc(608)] range at 0xfd35e000, size 0x2000 fully unreadable
[0920/112605:ERROR:process_info.cc(608)] range at 0xb2d55000, size 0xf84 fully unreadable
[0920/112605:ERROR:process_info.cc(608)] range at 0xfd73e000, size 0x2000 fully unreadable
[0920/112605:ERROR:process_info.cc(608)] range at 0xb2d58000, size 0xf84 fully unreadable
[0920/112605:ERROR:process_info.cc(608)] range at 0xfd87e000, size 0x2000 fully unreadable
[0920/112605:ERROR:process_info.cc(608)] range at 0xb2d5b000, size 0xf84 fully unreadable
[0920/112605:ERROR:process_info.cc(608)] range at 0xfdbbe000, size 0x2000 fully unreadable
[0920/112605:ERROR:process_info.cc(608)] range at 0xb2d5e000, size 0xf84 fully unreadable
[0920/112605:ERROR:process_info.cc(608)] range at 0xfdefe000, size 0x2000 fully unreadable
[0920/112605:ERROR:process_info.cc(608)] range at 0xb2d61000, size 0xf84 fully unreadable
[0920/112605:ERROR:process_info.cc(608)] range at 0xfe7de000, size 0x2000 fully unreadable
[0920/112605:ERROR:process_info.cc(608)] range at 0xb2d64000, size 0xf84 fully unreadable
[0920/112605:ERROR:process_info.cc(608)] range at 0xfe91e000, size 0x2000 fully unreadable
[0920/112605:ERROR:process_info.cc(608)] range at 0xb2d67000, size 0xf84 fully unreadable
[0920/112605:ERROR:process_info.cc(608)] range at 0xfea5e000, size 0x2000 fully unreadable
[0920/112605:ERROR:process_info.cc(608)] range at 0xb2d6a000, size 0xf84 fully unreadable
[0920/112605:ERROR:process_info.cc(608)] range at 0xfeb9e000, size 0x2000 fully unreadable
[0920/112605:ERROR:process_info.cc(608)] range at 0xb2d6d000, size 0xf84 fully unreadable
[0920/112605:ERROR:process_info.cc(608)] range at 0xfee7e000, size 0x2000 fully unreadable
[0920/112605:ERROR:process_info.cc(608)] range at 0xb2d70000, size 0xf84 fully unreadable
[0920/112605:ERROR:process_info.cc(608)] range at 0xfef7f000, size 0x1000 fully unreadable
[0920/112605:ERROR:process_info.cc(608)] range at 0xb2d73000, size 0xf84 fully unreadable
[0920/112605:ERROR:process_info.cc(608)] range at 0xff37e000, size 0x2000 fully unreadable
[0920/112605:ERROR:process_info.cc(608)] range at 0xb2d76000, size 0xf84 fully unreadable
[0920/112605:ERROR:process_info.cc(608)] range at 0xff4be000, size 0x2000 fully unreadable
[0920/112605:ERROR:process_info.cc(608)] range at 0xb2d79000, size 0xf84 fully unreadable
[0920/112605:ERROR:process_info.cc(608)] range at 0xffdff000, size 0x1000 fully unreadable
[0920/112605:ERROR:process_info.cc(608)] range at 0xb2d7c000, size 0xf84 fully unreadable
[0920/112605:ERROR:process_info.cc(608)] range at 0xfff3e000, size 0x2000 fully unreadable
[0920/112605:ERROR:process_info.cc(608)] range at 0xb2d7f000, size 0xf84 fully unreadable
[0920/112605:ERROR:process_info.cc(608)] range at 0x8fb4f000, size 0x1000 fully unreadable
[0920/112605:ERROR:process_info.cc(608)] range at 0xb2d82000, size 0xf84 fully unreadable
[0920/112605:ERROR:process_info.cc(608)] range at 0x9030f000, size 0x1000 fully unreadable
[0920/112605:ERROR:process_info.cc(608)] range at 0xb2d85000, size 0xf84 fully unreadable
