<?xml version="1.0" encoding="iso-8859-1"?>
<!-- Generator: Adobe Illustrator 16.0.0, SVG Export Plug-In . SVG Version: 6.00 Build 0)  -->
<!DOCTYPE svg PUBLIC "-//W3C//DTD SVG 1.1//EN" "http://www.w3.org/Graphics/SVG/1.1/DTD/svg11.dtd">
<svg version="1.1" id="Layer_1" xmlns="http://www.w3.org/2000/svg" xmlns:xlink="http://www.w3.org/1999/xlink" x="0px" y="0px"
	 width="1280px" height="1440px" viewBox="0 0 1280 1440" style="enable-background:new 0 0 1280 1440;" xml:space="preserve">
<image style="overflow:visible;" width="527" height="1047" xlink:href="1AB69DD0.jpg"  transform="matrix(0.9532 0 0 0.6877 350.7939 0)">
</image>
</svg>
